%YAML 1.1
%TAG !u! tag:unity3d.com,2011:
--- !u!1001 &1533495321648078428
PrefabInstance:
  m_ObjectHideFlags: 0
  serializedVersion: 2
  m_Modification:
    m_TransformParent: {fileID: 0}
    m_Modifications:
    - target: {fileID: 394574580636879050, guid: 5f104dff64e0746a5ac8a3ae378c6afa,
        type: 3}
      propertyPath: m_Name
      value: Corner1
      objectReference: {fileID: 0}
    - target: {fileID: 593229046920420244, guid: 5f104dff64e0746a5ac8a3ae378c6afa,
        type: 3}
      propertyPath: m_LocalRotation.y
      value: 1
      objectReference: {fileID: 0}
    - target: {fileID: 593229046920420244, guid: 5f104dff64e0746a5ac8a3ae378c6afa,
        type: 3}
      propertyPath: m_LocalRotation.w
      value: 0
      objectReference: {fileID: 0}
    - target: {fileID: 593229046920420244, guid: 5f104dff64e0746a5ac8a3ae378c6afa,
        type: 3}
      propertyPath: m_LocalEulerAnglesHint.y
      value: 180
      objectReference: {fileID: 0}
    - target: {fileID: 8395047970800422142, guid: 5f104dff64e0746a5ac8a3ae378c6afa,
        type: 3}
      propertyPath: m_LocalPosition.x
      value: 0
      objectReference: {fileID: 0}
    - target: {fileID: 8395047970800422142, guid: 5f104dff64e0746a5ac8a3ae378c6afa,
        type: 3}
      propertyPath: m_LocalPosition.y
      value: 0
      objectReference: {fileID: 0}
    - target: {fileID: 8395047970800422142, guid: 5f104dff64e0746a5ac8a3ae378c6afa,
        type: 3}
      propertyPath: m_LocalPosition.z
      value: 0
      objectReference: {fileID: 0}
    - target: {fileID: 8395047970800422142, guid: 5f104dff64e0746a5ac8a3ae378c6afa,
        type: 3}
      propertyPath: m_LocalRotation.x
      value: 0
      objectReference: {fileID: 0}
    - target: {fileID: 8395047970800422142, guid: 5f104dff64e0746a5ac8a3ae378c6afa,
        type: 3}
      propertyPath: m_LocalRotation.y
      value: 0
      objectReference: {fileID: 0}
    - target: {fileID: 8395047970800422142, guid: 5f104dff64e0746a5ac8a3ae378c6afa,
        type: 3}
      propertyPath: m_LocalRotation.z
      value: 0
      objectReference: {fileID: 0}
    - target: {fileID: 8395047970800422142, guid: 5f104dff64e0746a5ac8a3ae378c6afa,
        type: 3}
      propertyPath: m_LocalRotation.w
      value: 1
      objectReference: {fileID: 0}
    - target: {fileID: 8395047970800422142, guid: 5f104dff64e0746a5ac8a3ae378c6afa,
        type: 3}
      propertyPath: m_RootOrder
      value: 0
      objectReference: {fileID: 0}
    - target: {fileID: 8395047970800422142, guid: 5f104dff64e0746a5ac8a3ae378c6afa,
        type: 3}
      propertyPath: m_LocalEulerAnglesHint.x
      value: 0
      objectReference: {fileID: 0}
    - target: {fileID: 8395047970800422142, guid: 5f104dff64e0746a5ac8a3ae378c6afa,
        type: 3}
      propertyPath: m_LocalEulerAnglesHint.y
      value: 0
      objectReference: {fileID: 0}
    - target: {fileID: 8395047970800422142, guid: 5f104dff64e0746a5ac8a3ae378c6afa,
        type: 3}
      propertyPath: m_LocalEulerAnglesHint.z
      value: 0
      objectReference: {fileID: 0}
    - target: {fileID: 9180820010765857651, guid: 5f104dff64e0746a5ac8a3ae378c6afa,
        type: 3}
      propertyPath: South
      value: 0
      objectReference: {fileID: 0}
    - target: {fileID: 9180820010765857651, guid: 5f104dff64e0746a5ac8a3ae378c6afa,
        type: 3}
      propertyPath: East
      value: 1
      objectReference: {fileID: 0}
    m_RemovedComponents: []
  m_SourcePrefab: {fileID: 100100000, guid: 5f104dff64e0746a5ac8a3ae378c6afa, type: 3}
