%YAML 1.1
%TAG !u! tag:unity3d.com,2011:
--- !u!29 &1
OcclusionCullingSettings:
  m_ObjectHideFlags: 0
  serializedVersion: 2
  m_OcclusionBakeSettings:
    smallestOccluder: 5
    smallestHole: 0.25
    backfaceThreshold: 100
  m_SceneGUID: 00000000000000000000000000000000
  m_OcclusionCullingData: {fileID: 0}
--- !u!104 &2
RenderSettings:
  m_ObjectHideFlags: 0
  serializedVersion: 9
  m_Fog: 0
  m_FogColor: {r: 0.5, g: 0.5, b: 0.5, a: 1}
  m_FogMode: 3
  m_FogDensity: 0.01
  m_LinearFogStart: 0
  m_LinearFogEnd: 300
  m_AmbientSkyColor: {r: 0.212, g: 0.227, b: 0.259, a: 1}
  m_AmbientEquatorColor: {r: 0.114, g: 0.125, b: 0.133, a: 1}
  m_AmbientGroundColor: {r: 0.047, g: 0.043, b: 0.035, a: 1}
  m_AmbientIntensity: 1
  m_AmbientMode: 0
  m_SubtractiveShadowColor: {r: 0.42, g: 0.478, b: 0.627, a: 1}
  m_SkyboxMaterial: {fileID: 10304, guid: 0000000000000000f000000000000000, type: 0}
  m_HaloStrength: 0.5
  m_FlareStrength: 1
  m_FlareFadeSpeed: 3
  m_HaloTexture: {fileID: 0}
  m_SpotCookie: {fileID: 10001, guid: 0000000000000000e000000000000000, type: 0}
  m_DefaultReflectionMode: 0
  m_DefaultReflectionResolution: 128
  m_ReflectionBounces: 1
  m_ReflectionIntensity: 1
  m_CustomReflection: {fileID: 0}
  m_Sun: {fileID: 0}
  m_IndirectSpecularColor: {r: 0.44657868, g: 0.49641263, b: 0.57481706, a: 1}
  m_UseRadianceAmbientProbe: 0
--- !u!157 &3
LightmapSettings:
  m_ObjectHideFlags: 0
  serializedVersion: 11
  m_GIWorkflowMode: 0
  m_GISettings:
    serializedVersion: 2
    m_BounceScale: 1
    m_IndirectOutputScale: 1
    m_AlbedoBoost: 1
    m_EnvironmentLightingMode: 0
    m_EnableBakedLightmaps: 1
    m_EnableRealtimeLightmaps: 1
  m_LightmapEditorSettings:
    serializedVersion: 10
    m_Resolution: 2
    m_BakeResolution: 40
    m_AtlasSize: 1024
    m_AO: 0
    m_AOMaxDistance: 1
    m_CompAOExponent: 1
    m_CompAOExponentDirect: 0
    m_Padding: 2
    m_LightmapParameters: {fileID: 0}
    m_LightmapsBakeMode: 1
    m_TextureCompression: 1
    m_FinalGather: 0
    m_FinalGatherFiltering: 1
    m_FinalGatherRayCount: 256
    m_ReflectionCompression: 2
    m_MixedBakeMode: 2
    m_BakeBackend: 1
    m_PVRSampling: 1
    m_PVRDirectSampleCount: 32
    m_PVRSampleCount: 500
    m_PVRBounces: 2
    m_PVRFilterTypeDirect: 0
    m_PVRFilterTypeIndirect: 0
    m_PVRFilterTypeAO: 0
    m_PVRFilteringMode: 1
    m_PVRCulling: 1
    m_PVRFilteringGaussRadiusDirect: 1
    m_PVRFilteringGaussRadiusIndirect: 5
    m_PVRFilteringGaussRadiusAO: 2
    m_PVRFilteringAtrousPositionSigmaDirect: 0.5
    m_PVRFilteringAtrousPositionSigmaIndirect: 2
    m_PVRFilteringAtrousPositionSigmaAO: 1
    m_ShowResolutionOverlay: 1
  m_LightingDataAsset: {fileID: 0}
  m_UseShadowmask: 1
--- !u!196 &4
NavMeshSettings:
  serializedVersion: 2
  m_ObjectHideFlags: 0
  m_BuildSettings:
    serializedVersion: 2
    agentTypeID: 0
    agentRadius: 0.5
    agentHeight: 2
    agentSlope: 45
    agentClimb: 0.4
    ledgeDropHeight: 0
    maxJumpAcrossDistance: 0
    minRegionArea: 2
    manualCellSize: 0
    cellSize: 0.16666667
    manualTileSize: 0
    tileSize: 256
    accuratePlacement: 0
    debug:
      m_Flags: 0
  m_NavMeshData: {fileID: 0}
--- !u!1001 &332277859
PrefabInstance:
  m_ObjectHideFlags: 0
  serializedVersion: 2
  m_Modification:
    m_TransformParent: {fileID: 344882004}
    m_Modifications:
    - target: {fileID: 8730623481054853322, guid: 4d8827d7661e148098ee540be8a8b8cb,
        type: 3}
      propertyPath: m_textInfo.characterCount
      value: 12
      objectReference: {fileID: 0}
    - target: {fileID: 8730623481054853322, guid: 4d8827d7661e148098ee540be8a8b8cb,
        type: 3}
      propertyPath: m_textInfo.spaceCount
      value: 2
      objectReference: {fileID: 0}
    - target: {fileID: 8730623481054853322, guid: 4d8827d7661e148098ee540be8a8b8cb,
        type: 3}
      propertyPath: m_textInfo.wordCount
      value: 2
      objectReference: {fileID: 0}
    - target: {fileID: 8730623481054853322, guid: 4d8827d7661e148098ee540be8a8b8cb,
        type: 3}
      propertyPath: m_textInfo.lineCount
      value: 1
      objectReference: {fileID: 0}
    - target: {fileID: 8730623481054853322, guid: 4d8827d7661e148098ee540be8a8b8cb,
        type: 3}
      propertyPath: m_textInfo.pageCount
      value: 1
      objectReference: {fileID: 0}
    - target: {fileID: 8730623481054853322, guid: 4d8827d7661e148098ee540be8a8b8cb,
        type: 3}
      propertyPath: m_text
      value: 'Normal (1P)

'
      objectReference: {fileID: 0}
    - target: {fileID: 8730623481054853322, guid: 4d8827d7661e148098ee540be8a8b8cb,
        type: 3}
      propertyPath: m_enableAutoSizing
      value: 1
      objectReference: {fileID: 0}
    - target: {fileID: 8730623481054853322, guid: 4d8827d7661e148098ee540be8a8b8cb,
        type: 3}
      propertyPath: m_fontSize
      value: 19.4
      objectReference: {fileID: 0}
    - target: {fileID: 8730623481054853322, guid: 4d8827d7661e148098ee540be8a8b8cb,
        type: 3}
      propertyPath: m_fontColor.r
      value: 0.83971167
      objectReference: {fileID: 0}
    - target: {fileID: 8730623481054853322, guid: 4d8827d7661e148098ee540be8a8b8cb,
        type: 3}
      propertyPath: m_fontColor.g
      value: 0.86116415
      objectReference: {fileID: 0}
    - target: {fileID: 8730623481054853322, guid: 4d8827d7661e148098ee540be8a8b8cb,
        type: 3}
      propertyPath: m_fontColor32.rgba
      value: 4294302678
      objectReference: {fileID: 0}
    - target: {fileID: 8730623481054853322, guid: 4d8827d7661e148098ee540be8a8b8cb,
        type: 3}
      propertyPath: m_fontColor.b
      value: 0.9622642
      objectReference: {fileID: 0}
    - target: {fileID: 8730623481054853333, guid: 4d8827d7661e148098ee540be8a8b8cb,
        type: 3}
      propertyPath: m_AnchorMin.y
      value: 0.1
      objectReference: {fileID: 0}
    - target: {fileID: 8730623481054853333, guid: 4d8827d7661e148098ee540be8a8b8cb,
        type: 3}
      propertyPath: m_AnchoredPosition.y
      value: 0
      objectReference: {fileID: 0}
    - target: {fileID: 8730623481054853333, guid: 4d8827d7661e148098ee540be8a8b8cb,
        type: 3}
      propertyPath: m_SizeDelta.y
      value: 0
      objectReference: {fileID: 0}
    - target: {fileID: 8730623481054853333, guid: 4d8827d7661e148098ee540be8a8b8cb,
        type: 3}
      propertyPath: m_AnchorMax.y
      value: 0.9
      objectReference: {fileID: 0}
    - target: {fileID: 8730623482536856628, guid: 4d8827d7661e148098ee540be8a8b8cb,
        type: 3}
      propertyPath: m_LocalPosition.x
      value: 0
      objectReference: {fileID: 0}
    - target: {fileID: 8730623482536856628, guid: 4d8827d7661e148098ee540be8a8b8cb,
        type: 3}
      propertyPath: m_LocalPosition.y
      value: 0
      objectReference: {fileID: 0}
    - target: {fileID: 8730623482536856628, guid: 4d8827d7661e148098ee540be8a8b8cb,
        type: 3}
      propertyPath: m_LocalPosition.z
      value: 0
      objectReference: {fileID: 0}
    - target: {fileID: 8730623482536856628, guid: 4d8827d7661e148098ee540be8a8b8cb,
        type: 3}
      propertyPath: m_LocalRotation.x
      value: -0
      objectReference: {fileID: 0}
    - target: {fileID: 8730623482536856628, guid: 4d8827d7661e148098ee540be8a8b8cb,
        type: 3}
      propertyPath: m_LocalRotation.y
      value: -0
      objectReference: {fileID: 0}
    - target: {fileID: 8730623482536856628, guid: 4d8827d7661e148098ee540be8a8b8cb,
        type: 3}
      propertyPath: m_LocalRotation.z
      value: -0
      objectReference: {fileID: 0}
    - target: {fileID: 8730623482536856628, guid: 4d8827d7661e148098ee540be8a8b8cb,
        type: 3}
      propertyPath: m_LocalRotation.w
      value: 1
      objectReference: {fileID: 0}
    - target: {fileID: 8730623482536856628, guid: 4d8827d7661e148098ee540be8a8b8cb,
        type: 3}
      propertyPath: m_RootOrder
      value: 1
      objectReference: {fileID: 0}
    - target: {fileID: 8730623482536856628, guid: 4d8827d7661e148098ee540be8a8b8cb,
        type: 3}
      propertyPath: m_LocalEulerAnglesHint.x
      value: 0
      objectReference: {fileID: 0}
    - target: {fileID: 8730623482536856628, guid: 4d8827d7661e148098ee540be8a8b8cb,
        type: 3}
      propertyPath: m_LocalEulerAnglesHint.y
      value: 0
      objectReference: {fileID: 0}
    - target: {fileID: 8730623482536856628, guid: 4d8827d7661e148098ee540be8a8b8cb,
        type: 3}
      propertyPath: m_LocalEulerAnglesHint.z
      value: 0
      objectReference: {fileID: 0}
    - target: {fileID: 8730623482536856628, guid: 4d8827d7661e148098ee540be8a8b8cb,
        type: 3}
      propertyPath: m_AnchoredPosition.x
      value: 0
      objectReference: {fileID: 0}
    - target: {fileID: 8730623482536856628, guid: 4d8827d7661e148098ee540be8a8b8cb,
        type: 3}
      propertyPath: m_AnchoredPosition.y
      value: 0
      objectReference: {fileID: 0}
    - target: {fileID: 8730623482536856628, guid: 4d8827d7661e148098ee540be8a8b8cb,
        type: 3}
      propertyPath: m_SizeDelta.x
      value: 0
      objectReference: {fileID: 0}
    - target: {fileID: 8730623482536856628, guid: 4d8827d7661e148098ee540be8a8b8cb,
        type: 3}
      propertyPath: m_SizeDelta.y
      value: 0
      objectReference: {fileID: 0}
    - target: {fileID: 8730623482536856628, guid: 4d8827d7661e148098ee540be8a8b8cb,
        type: 3}
      propertyPath: m_AnchorMin.x
      value: 0
      objectReference: {fileID: 0}
    - target: {fileID: 8730623482536856628, guid: 4d8827d7661e148098ee540be8a8b8cb,
        type: 3}
      propertyPath: m_AnchorMin.y
      value: 0.73
      objectReference: {fileID: 0}
    - target: {fileID: 8730623482536856628, guid: 4d8827d7661e148098ee540be8a8b8cb,
        type: 3}
      propertyPath: m_AnchorMax.x
      value: 1
      objectReference: {fileID: 0}
    - target: {fileID: 8730623482536856628, guid: 4d8827d7661e148098ee540be8a8b8cb,
        type: 3}
      propertyPath: m_AnchorMax.y
      value: 0.86
      objectReference: {fileID: 0}
    - target: {fileID: 8730623482536856628, guid: 4d8827d7661e148098ee540be8a8b8cb,
        type: 3}
      propertyPath: m_Pivot.x
      value: 0.5
      objectReference: {fileID: 0}
    - target: {fileID: 8730623482536856628, guid: 4d8827d7661e148098ee540be8a8b8cb,
        type: 3}
      propertyPath: m_Pivot.y
      value: 0.5
      objectReference: {fileID: 0}
    - target: {fileID: 8730623482536856629, guid: 4d8827d7661e148098ee540be8a8b8cb,
        type: 3}
      propertyPath: m_OnClick.m_PersistentCalls.m_Calls.Array.size
      value: 1
      objectReference: {fileID: 0}
    - target: {fileID: 8730623482536856629, guid: 4d8827d7661e148098ee540be8a8b8cb,
        type: 3}
      propertyPath: m_OnClick.m_PersistentCalls.m_Calls.Array.data[0].m_Mode
      value: 1
      objectReference: {fileID: 0}
    - target: {fileID: 8730623482536856629, guid: 4d8827d7661e148098ee540be8a8b8cb,
        type: 3}
      propertyPath: m_OnClick.m_PersistentCalls.m_Calls.Array.data[0].m_CallState
      value: 2
      objectReference: {fileID: 0}
    - target: {fileID: 8730623482536856629, guid: 4d8827d7661e148098ee540be8a8b8cb,
        type: 3}
      propertyPath: m_OnClick.m_PersistentCalls.m_Calls.Array.data[0].m_Target
      value: 
      objectReference: {fileID: 1274182308}
    - target: {fileID: 8730623482536856629, guid: 4d8827d7661e148098ee540be8a8b8cb,
        type: 3}
      propertyPath: m_OnClick.m_PersistentCalls.m_Calls.Array.data[0].m_MethodName
      value: StartInfiniteGame
      objectReference: {fileID: 0}
    - target: {fileID: 8730623482536856629, guid: 4d8827d7661e148098ee540be8a8b8cb,
        type: 3}
      propertyPath: m_OnClick.m_PersistentCalls.m_Calls.Array.data[0].m_Arguments.m_ObjectArgumentAssemblyTypeName
      value: UnityEngine.Object, UnityEngine
      objectReference: {fileID: 0}
    - target: {fileID: 8730623482536856629, guid: 4d8827d7661e148098ee540be8a8b8cb,
        type: 3}
      propertyPath: m_Navigation.m_Mode
      value: 2
      objectReference: {fileID: 0}
    - target: {fileID: 8730623482536856629, guid: 4d8827d7661e148098ee540be8a8b8cb,
        type: 3}
      propertyPath: m_Colors.m_NormalColor.r
      value: 0.23767357
      objectReference: {fileID: 0}
    - target: {fileID: 8730623482536856629, guid: 4d8827d7661e148098ee540be8a8b8cb,
        type: 3}
      propertyPath: m_Colors.m_NormalColor.g
      value: 0.46226418
      objectReference: {fileID: 0}
    - target: {fileID: 8730623482536856629, guid: 4d8827d7661e148098ee540be8a8b8cb,
        type: 3}
      propertyPath: m_Colors.m_NormalColor.b
      value: 0.44453812
      objectReference: {fileID: 0}
    - target: {fileID: 8730623482536856629, guid: 4d8827d7661e148098ee540be8a8b8cb,
        type: 3}
      propertyPath: m_Colors.m_NormalColor.a
      value: 0.5019608
      objectReference: {fileID: 0}
    - target: {fileID: 8730623482536856631, guid: 4d8827d7661e148098ee540be8a8b8cb,
        type: 3}
      propertyPath: m_Name
      value: MenuOption2
      objectReference: {fileID: 0}
    m_RemovedComponents: []
  m_SourcePrefab: {fileID: 100100000, guid: 4d8827d7661e148098ee540be8a8b8cb, type: 3}
--- !u!224 &332277860 stripped
RectTransform:
  m_CorrespondingSourceObject: {fileID: 8730623482536856628, guid: 4d8827d7661e148098ee540be8a8b8cb,
    type: 3}
  m_PrefabInstance: {fileID: 332277859}
  m_PrefabAsset: {fileID: 0}
--- !u!1 &344882003
GameObject:
  m_ObjectHideFlags: 0
  m_CorrespondingSourceObject: {fileID: 0}
  m_PrefabInstance: {fileID: 0}
  m_PrefabAsset: {fileID: 0}
  serializedVersion: 6
  m_Component:
  - component: {fileID: 344882004}
  - component: {fileID: 344882006}
  - component: {fileID: 344882005}
  m_Layer: 5
  m_Name: OptionsPanel
  m_TagString: Untagged
  m_Icon: {fileID: 0}
  m_NavMeshLayer: 0
  m_StaticEditorFlags: 0
  m_IsActive: 1
--- !u!224 &344882004
RectTransform:
  m_ObjectHideFlags: 0
  m_CorrespondingSourceObject: {fileID: 0}
  m_PrefabInstance: {fileID: 0}
  m_PrefabAsset: {fileID: 0}
  m_GameObject: {fileID: 344882003}
  m_LocalRotation: {x: 0, y: 0, z: 0, w: 1}
  m_LocalPosition: {x: 0, y: 0, z: 0}
  m_LocalScale: {x: 1, y: 1, z: 1}
  m_Children:
  - {fileID: 1981077582}
  - {fileID: 332277860}
  - {fileID: 1541658724}
  - {fileID: 2088579490}
  - {fileID: 1916916057}
  - {fileID: 1320790799}
  - {fileID: 700769518}
  m_Father: {fileID: 460099060}
  m_RootOrder: 1
  m_LocalEulerAnglesHint: {x: 0, y: 0, z: 0}
  m_AnchorMin: {x: 0.3, y: 0.11}
  m_AnchorMax: {x: 0.7, y: 0.76}
  m_AnchoredPosition: {x: 0, y: 0}
  m_SizeDelta: {x: 0, y: 0}
  m_Pivot: {x: 0.5, y: 0.5}
--- !u!114 &344882005
MonoBehaviour:
  m_ObjectHideFlags: 0
  m_CorrespondingSourceObject: {fileID: 0}
  m_PrefabInstance: {fileID: 0}
  m_PrefabAsset: {fileID: 0}
  m_GameObject: {fileID: 344882003}
  m_Enabled: 0
  m_EditorHideFlags: 0
  m_Script: {fileID: -765806418, guid: f70555f144d8491a825f0804e09c671c, type: 3}
  m_Name: 
  m_EditorClassIdentifier: 
  m_Material: {fileID: 0}
  m_Color: {r: 1, g: 1, b: 1, a: 0.392}
  m_RaycastTarget: 1
  m_OnCullStateChanged:
    m_PersistentCalls:
      m_Calls: []
  m_Sprite: {fileID: 10907, guid: 0000000000000000f000000000000000, type: 0}
  m_Type: 1
  m_PreserveAspect: 0
  m_FillCenter: 1
  m_FillMethod: 4
  m_FillAmount: 1
  m_FillClockwise: 1
  m_FillOrigin: 0
  m_UseSpriteMesh: 0
--- !u!222 &344882006
CanvasRenderer:
  m_ObjectHideFlags: 0
  m_CorrespondingSourceObject: {fileID: 0}
  m_PrefabInstance: {fileID: 0}
  m_PrefabAsset: {fileID: 0}
  m_GameObject: {fileID: 344882003}
  m_CullTransparentMesh: 0
--- !u!1 &460099056
GameObject:
  m_ObjectHideFlags: 0
  m_CorrespondingSourceObject: {fileID: 0}
  m_PrefabInstance: {fileID: 0}
  m_PrefabAsset: {fileID: 0}
  serializedVersion: 6
  m_Component:
  - component: {fileID: 460099060}
  - component: {fileID: 460099059}
  - component: {fileID: 460099058}
  - component: {fileID: 460099057}
  m_Layer: 5
  m_Name: Canvas
  m_TagString: Untagged
  m_Icon: {fileID: 0}
  m_NavMeshLayer: 0
  m_StaticEditorFlags: 0
  m_IsActive: 1
--- !u!114 &460099057
MonoBehaviour:
  m_ObjectHideFlags: 0
  m_CorrespondingSourceObject: {fileID: 0}
  m_PrefabInstance: {fileID: 0}
  m_PrefabAsset: {fileID: 0}
  m_GameObject: {fileID: 460099056}
  m_Enabled: 1
  m_EditorHideFlags: 0
  m_Script: {fileID: 1301386320, guid: f70555f144d8491a825f0804e09c671c, type: 3}
  m_Name: 
  m_EditorClassIdentifier: 
  m_IgnoreReversedGraphics: 1
  m_BlockingObjects: 0
  m_BlockingMask:
    serializedVersion: 2
    m_Bits: 4294967295
--- !u!114 &460099058
MonoBehaviour:
  m_ObjectHideFlags: 0
  m_CorrespondingSourceObject: {fileID: 0}
  m_PrefabInstance: {fileID: 0}
  m_PrefabAsset: {fileID: 0}
  m_GameObject: {fileID: 460099056}
  m_Enabled: 1
  m_EditorHideFlags: 0
  m_Script: {fileID: 1980459831, guid: f70555f144d8491a825f0804e09c671c, type: 3}
  m_Name: 
  m_EditorClassIdentifier: 
  m_UiScaleMode: 0
  m_ReferencePixelsPerUnit: 100
  m_ScaleFactor: 1
  m_ReferenceResolution: {x: 800, y: 600}
  m_ScreenMatchMode: 0
  m_MatchWidthOrHeight: 0
  m_PhysicalUnit: 3
  m_FallbackScreenDPI: 96
  m_DefaultSpriteDPI: 96
  m_DynamicPixelsPerUnit: 1
--- !u!223 &460099059
Canvas:
  m_ObjectHideFlags: 0
  m_CorrespondingSourceObject: {fileID: 0}
  m_PrefabInstance: {fileID: 0}
  m_PrefabAsset: {fileID: 0}
  m_GameObject: {fileID: 460099056}
  m_Enabled: 1
  serializedVersion: 3
  m_RenderMode: 0
  m_Camera: {fileID: 0}
  m_PlaneDistance: 100
  m_PixelPerfect: 0
  m_ReceivesEvents: 1
  m_OverrideSorting: 0
  m_OverridePixelPerfect: 0
  m_SortingBucketNormalizedSize: 0
  m_AdditionalShaderChannelsFlag: 25
  m_SortingLayerID: 0
  m_SortingOrder: 0
  m_TargetDisplay: 0
--- !u!224 &460099060
RectTransform:
  m_ObjectHideFlags: 0
  m_CorrespondingSourceObject: {fileID: 0}
  m_PrefabInstance: {fileID: 0}
  m_PrefabAsset: {fileID: 0}
  m_GameObject: {fileID: 460099056}
  m_LocalRotation: {x: 0, y: 0, z: 0, w: 1}
  m_LocalPosition: {x: 0, y: 0, z: 0}
  m_LocalScale: {x: 0, y: 0, z: 0}
  m_Children:
  - {fileID: 2112719437}
  - {fileID: 344882004}
  m_Father: {fileID: 0}
  m_RootOrder: 2
  m_LocalEulerAnglesHint: {x: 0, y: 0, z: 0}
  m_AnchorMin: {x: 0, y: 0}
  m_AnchorMax: {x: 0, y: 0}
  m_AnchoredPosition: {x: 0, y: 0}
  m_SizeDelta: {x: 0, y: 0}
  m_Pivot: {x: 0, y: 0}
--- !u!1001 &532505277
PrefabInstance:
  m_ObjectHideFlags: 0
  serializedVersion: 2
  m_Modification:
    m_TransformParent: {fileID: 344882004}
    m_Modifications:
    - target: {fileID: 8730623481054853322, guid: 4d8827d7661e148098ee540be8a8b8cb,
        type: 3}
      propertyPath: m_textInfo.characterCount
      value: 4
      objectReference: {fileID: 0}
    - target: {fileID: 8730623481054853322, guid: 4d8827d7661e148098ee540be8a8b8cb,
        type: 3}
      propertyPath: m_textInfo.spaceCount
      value: 0
      objectReference: {fileID: 0}
    - target: {fileID: 8730623481054853322, guid: 4d8827d7661e148098ee540be8a8b8cb,
        type: 3}
      propertyPath: m_textInfo.wordCount
      value: 1
      objectReference: {fileID: 0}
    - target: {fileID: 8730623481054853322, guid: 4d8827d7661e148098ee540be8a8b8cb,
        type: 3}
      propertyPath: m_textInfo.lineCount
      value: 1
      objectReference: {fileID: 0}
    - target: {fileID: 8730623481054853322, guid: 4d8827d7661e148098ee540be8a8b8cb,
        type: 3}
      propertyPath: m_textInfo.pageCount
      value: 1
      objectReference: {fileID: 0}
    - target: {fileID: 8730623481054853322, guid: 4d8827d7661e148098ee540be8a8b8cb,
        type: 3}
      propertyPath: m_text
      value: Help
      objectReference: {fileID: 0}
    - target: {fileID: 8730623481054853322, guid: 4d8827d7661e148098ee540be8a8b8cb,
        type: 3}
      propertyPath: m_firstOverflowCharacterIndex
      value: -1
      objectReference: {fileID: 0}
    - target: {fileID: 8730623481054853322, guid: 4d8827d7661e148098ee540be8a8b8cb,
        type: 3}
      propertyPath: m_enableAutoSizing
      value: 1
      objectReference: {fileID: 0}
    - target: {fileID: 8730623481054853322, guid: 4d8827d7661e148098ee540be8a8b8cb,
        type: 3}
      propertyPath: m_fontSize
      value: 30.85
      objectReference: {fileID: 0}
    - target: {fileID: 8730623481054853322, guid: 4d8827d7661e148098ee540be8a8b8cb,
        type: 3}
      propertyPath: m_fontColor.r
      value: 0.83971167
      objectReference: {fileID: 0}
    - target: {fileID: 8730623481054853322, guid: 4d8827d7661e148098ee540be8a8b8cb,
        type: 3}
      propertyPath: m_fontColor.g
      value: 0.86116415
      objectReference: {fileID: 0}
    - target: {fileID: 8730623481054853322, guid: 4d8827d7661e148098ee540be8a8b8cb,
        type: 3}
      propertyPath: m_fontColor32.rgba
      value: 4294302678
      objectReference: {fileID: 0}
    - target: {fileID: 8730623481054853322, guid: 4d8827d7661e148098ee540be8a8b8cb,
        type: 3}
      propertyPath: m_fontColor.b
      value: 0.9622642
      objectReference: {fileID: 0}
    - target: {fileID: 8730623481054853333, guid: 4d8827d7661e148098ee540be8a8b8cb,
        type: 3}
      propertyPath: m_AnchorMin.y
      value: 0.1
      objectReference: {fileID: 0}
    - target: {fileID: 8730623481054853333, guid: 4d8827d7661e148098ee540be8a8b8cb,
        type: 3}
      propertyPath: m_AnchoredPosition.y
      value: 0
      objectReference: {fileID: 0}
    - target: {fileID: 8730623481054853333, guid: 4d8827d7661e148098ee540be8a8b8cb,
        type: 3}
      propertyPath: m_SizeDelta.y
      value: 0
      objectReference: {fileID: 0}
    - target: {fileID: 8730623481054853333, guid: 4d8827d7661e148098ee540be8a8b8cb,
        type: 3}
      propertyPath: m_AnchorMax.y
      value: 0.9
      objectReference: {fileID: 0}
    - target: {fileID: 8730623482536856628, guid: 4d8827d7661e148098ee540be8a8b8cb,
        type: 3}
      propertyPath: m_LocalPosition.x
      value: 0
      objectReference: {fileID: 0}
    - target: {fileID: 8730623482536856628, guid: 4d8827d7661e148098ee540be8a8b8cb,
        type: 3}
      propertyPath: m_LocalPosition.y
      value: 0
      objectReference: {fileID: 0}
    - target: {fileID: 8730623482536856628, guid: 4d8827d7661e148098ee540be8a8b8cb,
        type: 3}
      propertyPath: m_LocalPosition.z
      value: 0
      objectReference: {fileID: 0}
    - target: {fileID: 8730623482536856628, guid: 4d8827d7661e148098ee540be8a8b8cb,
        type: 3}
      propertyPath: m_LocalRotation.x
      value: -0
      objectReference: {fileID: 0}
    - target: {fileID: 8730623482536856628, guid: 4d8827d7661e148098ee540be8a8b8cb,
        type: 3}
      propertyPath: m_LocalRotation.y
      value: -0
      objectReference: {fileID: 0}
    - target: {fileID: 8730623482536856628, guid: 4d8827d7661e148098ee540be8a8b8cb,
        type: 3}
      propertyPath: m_LocalRotation.z
      value: -0
      objectReference: {fileID: 0}
    - target: {fileID: 8730623482536856628, guid: 4d8827d7661e148098ee540be8a8b8cb,
        type: 3}
      propertyPath: m_LocalRotation.w
      value: 1
      objectReference: {fileID: 0}
    - target: {fileID: 8730623482536856628, guid: 4d8827d7661e148098ee540be8a8b8cb,
        type: 3}
      propertyPath: m_RootOrder
      value: 5
      objectReference: {fileID: 0}
    - target: {fileID: 8730623482536856628, guid: 4d8827d7661e148098ee540be8a8b8cb,
        type: 3}
      propertyPath: m_LocalEulerAnglesHint.x
      value: 0
      objectReference: {fileID: 0}
    - target: {fileID: 8730623482536856628, guid: 4d8827d7661e148098ee540be8a8b8cb,
        type: 3}
      propertyPath: m_LocalEulerAnglesHint.y
      value: 0
      objectReference: {fileID: 0}
    - target: {fileID: 8730623482536856628, guid: 4d8827d7661e148098ee540be8a8b8cb,
        type: 3}
      propertyPath: m_LocalEulerAnglesHint.z
      value: 0
      objectReference: {fileID: 0}
    - target: {fileID: 8730623482536856628, guid: 4d8827d7661e148098ee540be8a8b8cb,
        type: 3}
      propertyPath: m_AnchoredPosition.x
      value: 0
      objectReference: {fileID: 0}
    - target: {fileID: 8730623482536856628, guid: 4d8827d7661e148098ee540be8a8b8cb,
        type: 3}
      propertyPath: m_AnchoredPosition.y
      value: 0
      objectReference: {fileID: 0}
    - target: {fileID: 8730623482536856628, guid: 4d8827d7661e148098ee540be8a8b8cb,
        type: 3}
      propertyPath: m_SizeDelta.x
      value: 0
      objectReference: {fileID: 0}
    - target: {fileID: 8730623482536856628, guid: 4d8827d7661e148098ee540be8a8b8cb,
        type: 3}
      propertyPath: m_SizeDelta.y
      value: 0
      objectReference: {fileID: 0}
    - target: {fileID: 8730623482536856628, guid: 4d8827d7661e148098ee540be8a8b8cb,
        type: 3}
      propertyPath: m_AnchorMin.x
      value: 0
      objectReference: {fileID: 0}
    - target: {fileID: 8730623482536856628, guid: 4d8827d7661e148098ee540be8a8b8cb,
        type: 3}
      propertyPath: m_AnchorMin.y
      value: 0.17
      objectReference: {fileID: 0}
    - target: {fileID: 8730623482536856628, guid: 4d8827d7661e148098ee540be8a8b8cb,
        type: 3}
      propertyPath: m_AnchorMax.x
      value: 1
      objectReference: {fileID: 0}
    - target: {fileID: 8730623482536856628, guid: 4d8827d7661e148098ee540be8a8b8cb,
        type: 3}
      propertyPath: m_AnchorMax.y
      value: 0.3
      objectReference: {fileID: 0}
    - target: {fileID: 8730623482536856628, guid: 4d8827d7661e148098ee540be8a8b8cb,
        type: 3}
      propertyPath: m_Pivot.x
      value: 0.5
      objectReference: {fileID: 0}
    - target: {fileID: 8730623482536856628, guid: 4d8827d7661e148098ee540be8a8b8cb,
        type: 3}
      propertyPath: m_Pivot.y
      value: 0.5
      objectReference: {fileID: 0}
    - target: {fileID: 8730623482536856629, guid: 4d8827d7661e148098ee540be8a8b8cb,
        type: 3}
      propertyPath: m_OnClick.m_PersistentCalls.m_Calls.Array.size
      value: 1
      objectReference: {fileID: 0}
    - target: {fileID: 8730623482536856629, guid: 4d8827d7661e148098ee540be8a8b8cb,
        type: 3}
      propertyPath: m_OnClick.m_PersistentCalls.m_Calls.Array.data[0].m_Mode
      value: 1
      objectReference: {fileID: 0}
    - target: {fileID: 8730623482536856629, guid: 4d8827d7661e148098ee540be8a8b8cb,
        type: 3}
      propertyPath: m_OnClick.m_PersistentCalls.m_Calls.Array.data[0].m_CallState
      value: 2
      objectReference: {fileID: 0}
    - target: {fileID: 8730623482536856629, guid: 4d8827d7661e148098ee540be8a8b8cb,
        type: 3}
      propertyPath: m_OnClick.m_PersistentCalls.m_Calls.Array.data[0].m_Target
      value: 
      objectReference: {fileID: 1274182308}
    - target: {fileID: 8730623482536856629, guid: 4d8827d7661e148098ee540be8a8b8cb,
        type: 3}
      propertyPath: m_OnClick.m_PersistentCalls.m_Calls.Array.data[0].m_MethodName
      value: ShowHelp
      objectReference: {fileID: 0}
    - target: {fileID: 8730623482536856629, guid: 4d8827d7661e148098ee540be8a8b8cb,
        type: 3}
      propertyPath: m_OnClick.m_PersistentCalls.m_Calls.Array.data[0].m_Arguments.m_ObjectArgumentAssemblyTypeName
      value: UnityEngine.Object, UnityEngine
      objectReference: {fileID: 0}
    - target: {fileID: 8730623482536856629, guid: 4d8827d7661e148098ee540be8a8b8cb,
        type: 3}
      propertyPath: m_Navigation.m_Mode
      value: 2
      objectReference: {fileID: 0}
    - target: {fileID: 8730623482536856629, guid: 4d8827d7661e148098ee540be8a8b8cb,
        type: 3}
      propertyPath: m_Colors.m_NormalColor.r
      value: 0.23767357
      objectReference: {fileID: 0}
    - target: {fileID: 8730623482536856629, guid: 4d8827d7661e148098ee540be8a8b8cb,
        type: 3}
      propertyPath: m_Colors.m_NormalColor.g
      value: 0.46226418
      objectReference: {fileID: 0}
    - target: {fileID: 8730623482536856629, guid: 4d8827d7661e148098ee540be8a8b8cb,
        type: 3}
      propertyPath: m_Colors.m_NormalColor.b
      value: 0.44453812
      objectReference: {fileID: 0}
    - target: {fileID: 8730623482536856629, guid: 4d8827d7661e148098ee540be8a8b8cb,
        type: 3}
      propertyPath: m_Colors.m_NormalColor.a
      value: 0.5019608
      objectReference: {fileID: 0}
    - target: {fileID: 8730623482536856631, guid: 4d8827d7661e148098ee540be8a8b8cb,
        type: 3}
      propertyPath: m_Name
      value: MenuOption6
      objectReference: {fileID: 0}
    m_RemovedComponents: []
  m_SourcePrefab: {fileID: 100100000, guid: 4d8827d7661e148098ee540be8a8b8cb, type: 3}
--- !u!1001 &700769517
PrefabInstance:
  m_ObjectHideFlags: 0
  serializedVersion: 2
  m_Modification:
    m_TransformParent: {fileID: 344882004}
    m_Modifications:
    - target: {fileID: 8730623481054853322, guid: 4d8827d7661e148098ee540be8a8b8cb,
        type: 3}
      propertyPath: m_textInfo.characterCount
      value: 8
      objectReference: {fileID: 0}
    - target: {fileID: 8730623481054853322, guid: 4d8827d7661e148098ee540be8a8b8cb,
        type: 3}
      propertyPath: m_textInfo.spaceCount
      value: 1
      objectReference: {fileID: 0}
    - target: {fileID: 8730623481054853322, guid: 4d8827d7661e148098ee540be8a8b8cb,
        type: 3}
      propertyPath: m_textInfo.wordCount
      value: 1
      objectReference: {fileID: 0}
    - target: {fileID: 8730623481054853322, guid: 4d8827d7661e148098ee540be8a8b8cb,
        type: 3}
      propertyPath: m_textInfo.lineCount
      value: 1
      objectReference: {fileID: 0}
    - target: {fileID: 8730623481054853322, guid: 4d8827d7661e148098ee540be8a8b8cb,
        type: 3}
      propertyPath: m_textInfo.pageCount
      value: 1
      objectReference: {fileID: 0}
    - target: {fileID: 8730623481054853322, guid: 4d8827d7661e148098ee540be8a8b8cb,
        type: 3}
      propertyPath: m_text
      value: 'Credits

'
      objectReference: {fileID: 0}
    - target: {fileID: 8730623481054853322, guid: 4d8827d7661e148098ee540be8a8b8cb,
        type: 3}
      propertyPath: m_firstOverflowCharacterIndex
      value: -1
      objectReference: {fileID: 0}
    - target: {fileID: 8730623481054853322, guid: 4d8827d7661e148098ee540be8a8b8cb,
        type: 3}
      propertyPath: m_enableAutoSizing
      value: 1
      objectReference: {fileID: 0}
    - target: {fileID: 8730623481054853322, guid: 4d8827d7661e148098ee540be8a8b8cb,
        type: 3}
      propertyPath: m_fontSize
      value: 30.85
      objectReference: {fileID: 0}
    - target: {fileID: 8730623481054853322, guid: 4d8827d7661e148098ee540be8a8b8cb,
        type: 3}
      propertyPath: m_fontColor.r
      value: 0.83971167
      objectReference: {fileID: 0}
    - target: {fileID: 8730623481054853322, guid: 4d8827d7661e148098ee540be8a8b8cb,
        type: 3}
      propertyPath: m_fontColor.g
      value: 0.86116415
      objectReference: {fileID: 0}
    - target: {fileID: 8730623481054853322, guid: 4d8827d7661e148098ee540be8a8b8cb,
        type: 3}
      propertyPath: m_fontColor32.rgba
      value: 4294302678
      objectReference: {fileID: 0}
    - target: {fileID: 8730623481054853322, guid: 4d8827d7661e148098ee540be8a8b8cb,
        type: 3}
      propertyPath: m_fontColor.b
      value: 0.9622642
      objectReference: {fileID: 0}
    - target: {fileID: 8730623481054853333, guid: 4d8827d7661e148098ee540be8a8b8cb,
        type: 3}
      propertyPath: m_AnchorMin.y
      value: 0.1
      objectReference: {fileID: 0}
    - target: {fileID: 8730623481054853333, guid: 4d8827d7661e148098ee540be8a8b8cb,
        type: 3}
      propertyPath: m_AnchoredPosition.y
      value: 0
      objectReference: {fileID: 0}
    - target: {fileID: 8730623481054853333, guid: 4d8827d7661e148098ee540be8a8b8cb,
        type: 3}
      propertyPath: m_SizeDelta.y
      value: 0
      objectReference: {fileID: 0}
    - target: {fileID: 8730623481054853333, guid: 4d8827d7661e148098ee540be8a8b8cb,
        type: 3}
      propertyPath: m_AnchorMax.y
      value: 0.9
      objectReference: {fileID: 0}
    - target: {fileID: 8730623482536856628, guid: 4d8827d7661e148098ee540be8a8b8cb,
        type: 3}
      propertyPath: m_LocalPosition.x
      value: 0
      objectReference: {fileID: 0}
    - target: {fileID: 8730623482536856628, guid: 4d8827d7661e148098ee540be8a8b8cb,
        type: 3}
      propertyPath: m_LocalPosition.y
      value: 0
      objectReference: {fileID: 0}
    - target: {fileID: 8730623482536856628, guid: 4d8827d7661e148098ee540be8a8b8cb,
        type: 3}
      propertyPath: m_LocalPosition.z
      value: 0
      objectReference: {fileID: 0}
    - target: {fileID: 8730623482536856628, guid: 4d8827d7661e148098ee540be8a8b8cb,
        type: 3}
      propertyPath: m_LocalRotation.x
      value: -0
      objectReference: {fileID: 0}
    - target: {fileID: 8730623482536856628, guid: 4d8827d7661e148098ee540be8a8b8cb,
        type: 3}
      propertyPath: m_LocalRotation.y
      value: -0
      objectReference: {fileID: 0}
    - target: {fileID: 8730623482536856628, guid: 4d8827d7661e148098ee540be8a8b8cb,
        type: 3}
      propertyPath: m_LocalRotation.z
      value: -0
      objectReference: {fileID: 0}
    - target: {fileID: 8730623482536856628, guid: 4d8827d7661e148098ee540be8a8b8cb,
        type: 3}
      propertyPath: m_LocalRotation.w
      value: 1
      objectReference: {fileID: 0}
    - target: {fileID: 8730623482536856628, guid: 4d8827d7661e148098ee540be8a8b8cb,
        type: 3}
      propertyPath: m_RootOrder
      value: 6
      objectReference: {fileID: 0}
    - target: {fileID: 8730623482536856628, guid: 4d8827d7661e148098ee540be8a8b8cb,
        type: 3}
      propertyPath: m_LocalEulerAnglesHint.x
      value: 0
      objectReference: {fileID: 0}
    - target: {fileID: 8730623482536856628, guid: 4d8827d7661e148098ee540be8a8b8cb,
        type: 3}
      propertyPath: m_LocalEulerAnglesHint.y
      value: 0
      objectReference: {fileID: 0}
    - target: {fileID: 8730623482536856628, guid: 4d8827d7661e148098ee540be8a8b8cb,
        type: 3}
      propertyPath: m_LocalEulerAnglesHint.z
      value: 0
      objectReference: {fileID: 0}
    - target: {fileID: 8730623482536856628, guid: 4d8827d7661e148098ee540be8a8b8cb,
        type: 3}
      propertyPath: m_AnchoredPosition.x
      value: 0
      objectReference: {fileID: 0}
    - target: {fileID: 8730623482536856628, guid: 4d8827d7661e148098ee540be8a8b8cb,
        type: 3}
      propertyPath: m_AnchoredPosition.y
      value: 0
      objectReference: {fileID: 0}
    - target: {fileID: 8730623482536856628, guid: 4d8827d7661e148098ee540be8a8b8cb,
        type: 3}
      propertyPath: m_SizeDelta.x
      value: 0
      objectReference: {fileID: 0}
    - target: {fileID: 8730623482536856628, guid: 4d8827d7661e148098ee540be8a8b8cb,
        type: 3}
      propertyPath: m_SizeDelta.y
      value: 0
      objectReference: {fileID: 0}
    - target: {fileID: 8730623482536856628, guid: 4d8827d7661e148098ee540be8a8b8cb,
        type: 3}
      propertyPath: m_AnchorMin.x
      value: 0
      objectReference: {fileID: 0}
    - target: {fileID: 8730623482536856628, guid: 4d8827d7661e148098ee540be8a8b8cb,
        type: 3}
      propertyPath: m_AnchorMin.y
      value: 0.03
      objectReference: {fileID: 0}
    - target: {fileID: 8730623482536856628, guid: 4d8827d7661e148098ee540be8a8b8cb,
        type: 3}
      propertyPath: m_AnchorMax.x
      value: 1
      objectReference: {fileID: 0}
    - target: {fileID: 8730623482536856628, guid: 4d8827d7661e148098ee540be8a8b8cb,
        type: 3}
      propertyPath: m_AnchorMax.y
      value: 0.16
      objectReference: {fileID: 0}
    - target: {fileID: 8730623482536856628, guid: 4d8827d7661e148098ee540be8a8b8cb,
        type: 3}
      propertyPath: m_Pivot.x
      value: 0.5
      objectReference: {fileID: 0}
    - target: {fileID: 8730623482536856628, guid: 4d8827d7661e148098ee540be8a8b8cb,
        type: 3}
      propertyPath: m_Pivot.y
      value: 0.5
      objectReference: {fileID: 0}
    - target: {fileID: 8730623482536856629, guid: 4d8827d7661e148098ee540be8a8b8cb,
        type: 3}
      propertyPath: m_OnClick.m_PersistentCalls.m_Calls.Array.size
      value: 1
      objectReference: {fileID: 0}
    - target: {fileID: 8730623482536856629, guid: 4d8827d7661e148098ee540be8a8b8cb,
        type: 3}
      propertyPath: m_OnClick.m_PersistentCalls.m_Calls.Array.data[0].m_Mode
      value: 1
      objectReference: {fileID: 0}
    - target: {fileID: 8730623482536856629, guid: 4d8827d7661e148098ee540be8a8b8cb,
        type: 3}
      propertyPath: m_OnClick.m_PersistentCalls.m_Calls.Array.data[0].m_CallState
      value: 2
      objectReference: {fileID: 0}
    - target: {fileID: 8730623482536856629, guid: 4d8827d7661e148098ee540be8a8b8cb,
        type: 3}
      propertyPath: m_OnClick.m_PersistentCalls.m_Calls.Array.data[0].m_Target
      value: 
      objectReference: {fileID: 1274182308}
    - target: {fileID: 8730623482536856629, guid: 4d8827d7661e148098ee540be8a8b8cb,
        type: 3}
      propertyPath: m_OnClick.m_PersistentCalls.m_Calls.Array.data[0].m_MethodName
      value: ShowCredits
      objectReference: {fileID: 0}
    - target: {fileID: 8730623482536856629, guid: 4d8827d7661e148098ee540be8a8b8cb,
        type: 3}
      propertyPath: m_OnClick.m_PersistentCalls.m_Calls.Array.data[0].m_Arguments.m_ObjectArgumentAssemblyTypeName
      value: UnityEngine.Object, UnityEngine
      objectReference: {fileID: 0}
    - target: {fileID: 8730623482536856629, guid: 4d8827d7661e148098ee540be8a8b8cb,
        type: 3}
      propertyPath: m_Navigation.m_Mode
      value: 2
      objectReference: {fileID: 0}
    - target: {fileID: 8730623482536856629, guid: 4d8827d7661e148098ee540be8a8b8cb,
        type: 3}
      propertyPath: m_Colors.m_NormalColor.r
      value: 0.23767357
      objectReference: {fileID: 0}
    - target: {fileID: 8730623482536856629, guid: 4d8827d7661e148098ee540be8a8b8cb,
        type: 3}
      propertyPath: m_Colors.m_NormalColor.g
      value: 0.46226418
      objectReference: {fileID: 0}
    - target: {fileID: 8730623482536856629, guid: 4d8827d7661e148098ee540be8a8b8cb,
        type: 3}
      propertyPath: m_Colors.m_NormalColor.b
      value: 0.44453812
      objectReference: {fileID: 0}
    - target: {fileID: 8730623482536856629, guid: 4d8827d7661e148098ee540be8a8b8cb,
        type: 3}
      propertyPath: m_Colors.m_NormalColor.a
      value: 0.5019608
      objectReference: {fileID: 0}
    - target: {fileID: 8730623482536856631, guid: 4d8827d7661e148098ee540be8a8b8cb,
        type: 3}
      propertyPath: m_Name
      value: MenuOption7
      objectReference: {fileID: 0}
    m_RemovedComponents: []
  m_SourcePrefab: {fileID: 100100000, guid: 4d8827d7661e148098ee540be8a8b8cb, type: 3}
--- !u!224 &700769518 stripped
RectTransform:
  m_CorrespondingSourceObject: {fileID: 8730623482536856628, guid: 4d8827d7661e148098ee540be8a8b8cb,
    type: 3}
  m_PrefabInstance: {fileID: 700769517}
  m_PrefabAsset: {fileID: 0}
--- !u!1 &902671089 stripped
GameObject:
  m_CorrespondingSourceObject: {fileID: 8730623482536856631, guid: 4d8827d7661e148098ee540be8a8b8cb,
    type: 3}
  m_PrefabInstance: {fileID: 8730623480759833722}
  m_PrefabAsset: {fileID: 0}
--- !u!1 &1033134447
GameObject:
  m_ObjectHideFlags: 0
  m_CorrespondingSourceObject: {fileID: 0}
  m_PrefabInstance: {fileID: 0}
  m_PrefabAsset: {fileID: 0}
  serializedVersion: 6
  m_Component:
  - component: {fileID: 1033134450}
  - component: {fileID: 1033134449}
  - component: {fileID: 1033134448}
  m_Layer: 0
  m_Name: EventSystem
  m_TagString: Untagged
  m_Icon: {fileID: 0}
  m_NavMeshLayer: 0
  m_StaticEditorFlags: 0
  m_IsActive: 1
--- !u!114 &1033134448
MonoBehaviour:
  m_ObjectHideFlags: 0
  m_CorrespondingSourceObject: {fileID: 0}
  m_PrefabInstance: {fileID: 0}
  m_PrefabAsset: {fileID: 0}
  m_GameObject: {fileID: 1033134447}
  m_Enabled: 1
  m_EditorHideFlags: 0
  m_Script: {fileID: 1077351063, guid: f70555f144d8491a825f0804e09c671c, type: 3}
  m_Name: 
  m_EditorClassIdentifier: 
  m_HorizontalAxis: Horizontal
  m_VerticalAxis: Vertical
  m_SubmitButton: Submit
  m_CancelButton: Cancel
  m_InputActionsPerSecond: 10
  m_RepeatDelay: 0.5
  m_ForceModuleActive: 0
--- !u!114 &1033134449
MonoBehaviour:
  m_ObjectHideFlags: 0
  m_CorrespondingSourceObject: {fileID: 0}
  m_PrefabInstance: {fileID: 0}
  m_PrefabAsset: {fileID: 0}
  m_GameObject: {fileID: 1033134447}
  m_Enabled: 1
  m_EditorHideFlags: 0
  m_Script: {fileID: -619905303, guid: f70555f144d8491a825f0804e09c671c, type: 3}
  m_Name: 
  m_EditorClassIdentifier: 
  m_FirstSelected: {fileID: 902671089}
  m_sendNavigationEvents: 1
  m_DragThreshold: 10
--- !u!4 &1033134450
Transform:
  m_ObjectHideFlags: 0
  m_CorrespondingSourceObject: {fileID: 0}
  m_PrefabInstance: {fileID: 0}
  m_PrefabAsset: {fileID: 0}
  m_GameObject: {fileID: 1033134447}
  m_LocalRotation: {x: 0, y: 0, z: 0, w: 1}
  m_LocalPosition: {x: 0, y: 0, z: 0}
  m_LocalScale: {x: 1, y: 1, z: 1}
  m_Children: []
  m_Father: {fileID: 0}
  m_RootOrder: 3
  m_LocalEulerAnglesHint: {x: 0, y: 0, z: 0}
--- !u!1 &1274182307
GameObject:
  m_ObjectHideFlags: 0
  m_CorrespondingSourceObject: {fileID: 0}
  m_PrefabInstance: {fileID: 0}
  m_PrefabAsset: {fileID: 0}
  serializedVersion: 6
  m_Component:
  - component: {fileID: 1274182309}
  - component: {fileID: 1274182308}
  m_Layer: 0
  m_Name: Controllers
  m_TagString: Untagged
  m_Icon: {fileID: 0}
  m_NavMeshLayer: 0
  m_StaticEditorFlags: 0
  m_IsActive: 1
--- !u!114 &1274182308
MonoBehaviour:
  m_ObjectHideFlags: 0
  m_CorrespondingSourceObject: {fileID: 0}
  m_PrefabInstance: {fileID: 0}
  m_PrefabAsset: {fileID: 0}
  m_GameObject: {fileID: 1274182307}
  m_Enabled: 1
  m_EditorHideFlags: 0
  m_Script: {fileID: 11500000, guid: b9fea1af5c4e843f3b9560e4921d2f57, type: 3}
  m_Name: 
  m_EditorClassIdentifier: 
  difficultyButtonText: {fileID: 1409554814}
--- !u!4 &1274182309
Transform:
  m_ObjectHideFlags: 0
  m_CorrespondingSourceObject: {fileID: 0}
  m_PrefabInstance: {fileID: 0}
  m_PrefabAsset: {fileID: 0}
  m_GameObject: {fileID: 1274182307}
  m_LocalRotation: {x: 0, y: 0, z: 0, w: 1}
  m_LocalPosition: {x: 574, y: 255, z: 0}
  m_LocalScale: {x: 1, y: 1, z: 1}
  m_Children: []
  m_Father: {fileID: 0}
  m_RootOrder: 4
  m_LocalEulerAnglesHint: {x: 0, y: 0, z: 0}
--- !u!224 &1320790799 stripped
RectTransform:
  m_CorrespondingSourceObject: {fileID: 8730623482536856628, guid: 4d8827d7661e148098ee540be8a8b8cb,
    type: 3}
  m_PrefabInstance: {fileID: 532505277}
  m_PrefabAsset: {fileID: 0}
--- !u!114 &1409554814 stripped
MonoBehaviour:
  m_CorrespondingSourceObject: {fileID: 8730623481054853322, guid: 4d8827d7661e148098ee540be8a8b8cb,
    type: 3}
  m_PrefabInstance: {fileID: 1916916056}
  m_PrefabAsset: {fileID: 0}
  m_GameObject: {fileID: 0}
  m_Enabled: 1
  m_EditorHideFlags: 0
  m_Script: {fileID: 11500000, guid: f4688fdb7df04437aeb418b961361dc5, type: 3}
  m_Name: 
  m_EditorClassIdentifier: 
--- !u!1001 &1541658723
PrefabInstance:
  m_ObjectHideFlags: 0
  serializedVersion: 2
  m_Modification:
    m_TransformParent: {fileID: 344882004}
    m_Modifications:
    - target: {fileID: 8730623481054853322, guid: 4d8827d7661e148098ee540be8a8b8cb,
        type: 3}
      propertyPath: m_textInfo.characterCount
      value: 9
      objectReference: {fileID: 0}
    - target: {fileID: 8730623481054853322, guid: 4d8827d7661e148098ee540be8a8b8cb,
        type: 3}
      propertyPath: m_textInfo.spaceCount
      value: 2
      objectReference: {fileID: 0}
    - target: {fileID: 8730623481054853322, guid: 4d8827d7661e148098ee540be8a8b8cb,
        type: 3}
      propertyPath: m_textInfo.wordCount
      value: 3
      objectReference: {fileID: 0}
    - target: {fileID: 8730623481054853322, guid: 4d8827d7661e148098ee540be8a8b8cb,
        type: 3}
      propertyPath: m_textInfo.lineCount
      value: 1
      objectReference: {fileID: 0}
    - target: {fileID: 8730623481054853322, guid: 4d8827d7661e148098ee540be8a8b8cb,
        type: 3}
      propertyPath: m_textInfo.pageCount
      value: 1
      objectReference: {fileID: 0}
    - target: {fileID: 8730623481054853322, guid: 4d8827d7661e148098ee540be8a8b8cb,
        type: 3}
      propertyPath: m_text
      value: Coop (2P)
      objectReference: {fileID: 0}
    - target: {fileID: 8730623481054853322, guid: 4d8827d7661e148098ee540be8a8b8cb,
        type: 3}
      propertyPath: m_enableAutoSizing
      value: 1
      objectReference: {fileID: 0}
    - target: {fileID: 8730623481054853322, guid: 4d8827d7661e148098ee540be8a8b8cb,
        type: 3}
      propertyPath: m_fontSize
      value: 18
      objectReference: {fileID: 0}
    - target: {fileID: 8730623481054853322, guid: 4d8827d7661e148098ee540be8a8b8cb,
        type: 3}
      propertyPath: m_fontColor.r
      value: 0.83971167
      objectReference: {fileID: 0}
    - target: {fileID: 8730623481054853322, guid: 4d8827d7661e148098ee540be8a8b8cb,
        type: 3}
      propertyPath: m_fontColor.g
      value: 0.86116415
      objectReference: {fileID: 0}
    - target: {fileID: 8730623481054853322, guid: 4d8827d7661e148098ee540be8a8b8cb,
        type: 3}
      propertyPath: m_fontColor32.rgba
      value: 4294302678
      objectReference: {fileID: 0}
    - target: {fileID: 8730623481054853322, guid: 4d8827d7661e148098ee540be8a8b8cb,
        type: 3}
      propertyPath: m_fontColor.b
      value: 0.9622642
      objectReference: {fileID: 0}
    - target: {fileID: 8730623481054853322, guid: 4d8827d7661e148098ee540be8a8b8cb,
        type: 3}
      propertyPath: m_firstOverflowCharacterIndex
      value: 0
      objectReference: {fileID: 0}
    - target: {fileID: 8730623481054853333, guid: 4d8827d7661e148098ee540be8a8b8cb,
        type: 3}
      propertyPath: m_AnchorMin.y
      value: 0.1
      objectReference: {fileID: 0}
    - target: {fileID: 8730623481054853333, guid: 4d8827d7661e148098ee540be8a8b8cb,
        type: 3}
      propertyPath: m_AnchoredPosition.y
      value: 0
      objectReference: {fileID: 0}
    - target: {fileID: 8730623481054853333, guid: 4d8827d7661e148098ee540be8a8b8cb,
        type: 3}
      propertyPath: m_SizeDelta.y
      value: 0
      objectReference: {fileID: 0}
    - target: {fileID: 8730623481054853333, guid: 4d8827d7661e148098ee540be8a8b8cb,
        type: 3}
      propertyPath: m_AnchorMax.y
      value: 0.9
      objectReference: {fileID: 0}
    - target: {fileID: 8730623482536856628, guid: 4d8827d7661e148098ee540be8a8b8cb,
        type: 3}
      propertyPath: m_LocalPosition.x
      value: 0
      objectReference: {fileID: 0}
    - target: {fileID: 8730623482536856628, guid: 4d8827d7661e148098ee540be8a8b8cb,
        type: 3}
      propertyPath: m_LocalPosition.y
      value: 0
      objectReference: {fileID: 0}
    - target: {fileID: 8730623482536856628, guid: 4d8827d7661e148098ee540be8a8b8cb,
        type: 3}
      propertyPath: m_LocalPosition.z
      value: 0
      objectReference: {fileID: 0}
    - target: {fileID: 8730623482536856628, guid: 4d8827d7661e148098ee540be8a8b8cb,
        type: 3}
      propertyPath: m_LocalRotation.x
      value: -0
      objectReference: {fileID: 0}
    - target: {fileID: 8730623482536856628, guid: 4d8827d7661e148098ee540be8a8b8cb,
        type: 3}
      propertyPath: m_LocalRotation.y
      value: -0
      objectReference: {fileID: 0}
    - target: {fileID: 8730623482536856628, guid: 4d8827d7661e148098ee540be8a8b8cb,
        type: 3}
      propertyPath: m_LocalRotation.z
      value: -0
      objectReference: {fileID: 0}
    - target: {fileID: 8730623482536856628, guid: 4d8827d7661e148098ee540be8a8b8cb,
        type: 3}
      propertyPath: m_LocalRotation.w
      value: 1
      objectReference: {fileID: 0}
    - target: {fileID: 8730623482536856628, guid: 4d8827d7661e148098ee540be8a8b8cb,
        type: 3}
      propertyPath: m_RootOrder
      value: 2
      objectReference: {fileID: 0}
    - target: {fileID: 8730623482536856628, guid: 4d8827d7661e148098ee540be8a8b8cb,
        type: 3}
      propertyPath: m_LocalEulerAnglesHint.x
      value: 0
      objectReference: {fileID: 0}
    - target: {fileID: 8730623482536856628, guid: 4d8827d7661e148098ee540be8a8b8cb,
        type: 3}
      propertyPath: m_LocalEulerAnglesHint.y
      value: 0
      objectReference: {fileID: 0}
    - target: {fileID: 8730623482536856628, guid: 4d8827d7661e148098ee540be8a8b8cb,
        type: 3}
      propertyPath: m_LocalEulerAnglesHint.z
      value: 0
      objectReference: {fileID: 0}
    - target: {fileID: 8730623482536856628, guid: 4d8827d7661e148098ee540be8a8b8cb,
        type: 3}
      propertyPath: m_AnchoredPosition.x
      value: 0
      objectReference: {fileID: 0}
    - target: {fileID: 8730623482536856628, guid: 4d8827d7661e148098ee540be8a8b8cb,
        type: 3}
      propertyPath: m_AnchoredPosition.y
      value: 0
      objectReference: {fileID: 0}
    - target: {fileID: 8730623482536856628, guid: 4d8827d7661e148098ee540be8a8b8cb,
        type: 3}
      propertyPath: m_SizeDelta.x
      value: 0
      objectReference: {fileID: 0}
    - target: {fileID: 8730623482536856628, guid: 4d8827d7661e148098ee540be8a8b8cb,
        type: 3}
      propertyPath: m_SizeDelta.y
      value: 0
      objectReference: {fileID: 0}
    - target: {fileID: 8730623482536856628, guid: 4d8827d7661e148098ee540be8a8b8cb,
        type: 3}
      propertyPath: m_AnchorMin.x
      value: 0
      objectReference: {fileID: 0}
    - target: {fileID: 8730623482536856628, guid: 4d8827d7661e148098ee540be8a8b8cb,
        type: 3}
      propertyPath: m_AnchorMin.y
      value: 0.59
      objectReference: {fileID: 0}
    - target: {fileID: 8730623482536856628, guid: 4d8827d7661e148098ee540be8a8b8cb,
        type: 3}
      propertyPath: m_AnchorMax.x
      value: 1
      objectReference: {fileID: 0}
    - target: {fileID: 8730623482536856628, guid: 4d8827d7661e148098ee540be8a8b8cb,
        type: 3}
      propertyPath: m_AnchorMax.y
      value: 0.72
      objectReference: {fileID: 0}
    - target: {fileID: 8730623482536856628, guid: 4d8827d7661e148098ee540be8a8b8cb,
        type: 3}
      propertyPath: m_Pivot.x
      value: 0.5
      objectReference: {fileID: 0}
    - target: {fileID: 8730623482536856628, guid: 4d8827d7661e148098ee540be8a8b8cb,
        type: 3}
      propertyPath: m_Pivot.y
      value: 0.5
      objectReference: {fileID: 0}
    - target: {fileID: 8730623482536856629, guid: 4d8827d7661e148098ee540be8a8b8cb,
        type: 3}
      propertyPath: m_OnClick.m_PersistentCalls.m_Calls.Array.size
      value: 1
      objectReference: {fileID: 0}
    - target: {fileID: 8730623482536856629, guid: 4d8827d7661e148098ee540be8a8b8cb,
        type: 3}
      propertyPath: m_OnClick.m_PersistentCalls.m_Calls.Array.data[0].m_Mode
      value: 1
      objectReference: {fileID: 0}
    - target: {fileID: 8730623482536856629, guid: 4d8827d7661e148098ee540be8a8b8cb,
        type: 3}
      propertyPath: m_OnClick.m_PersistentCalls.m_Calls.Array.data[0].m_CallState
      value: 2
      objectReference: {fileID: 0}
    - target: {fileID: 8730623482536856629, guid: 4d8827d7661e148098ee540be8a8b8cb,
        type: 3}
      propertyPath: m_OnClick.m_PersistentCalls.m_Calls.Array.data[0].m_Target
      value: 
      objectReference: {fileID: 1274182308}
    - target: {fileID: 8730623482536856629, guid: 4d8827d7661e148098ee540be8a8b8cb,
        type: 3}
      propertyPath: m_OnClick.m_PersistentCalls.m_Calls.Array.data[0].m_MethodName
      value: Start2PCoop
      objectReference: {fileID: 0}
    - target: {fileID: 8730623482536856629, guid: 4d8827d7661e148098ee540be8a8b8cb,
        type: 3}
      propertyPath: m_OnClick.m_PersistentCalls.m_Calls.Array.data[0].m_Arguments.m_ObjectArgumentAssemblyTypeName
      value: UnityEngine.Object, UnityEngine
      objectReference: {fileID: 0}
    - target: {fileID: 8730623482536856629, guid: 4d8827d7661e148098ee540be8a8b8cb,
        type: 3}
      propertyPath: m_Navigation.m_Mode
      value: 2
      objectReference: {fileID: 0}
    - target: {fileID: 8730623482536856629, guid: 4d8827d7661e148098ee540be8a8b8cb,
        type: 3}
      propertyPath: m_Colors.m_NormalColor.r
      value: 0.23767357
      objectReference: {fileID: 0}
    - target: {fileID: 8730623482536856629, guid: 4d8827d7661e148098ee540be8a8b8cb,
        type: 3}
      propertyPath: m_Colors.m_NormalColor.g
      value: 0.46226418
      objectReference: {fileID: 0}
    - target: {fileID: 8730623482536856629, guid: 4d8827d7661e148098ee540be8a8b8cb,
        type: 3}
      propertyPath: m_Colors.m_NormalColor.b
      value: 0.44453812
      objectReference: {fileID: 0}
    - target: {fileID: 8730623482536856629, guid: 4d8827d7661e148098ee540be8a8b8cb,
        type: 3}
      propertyPath: m_Colors.m_NormalColor.a
      value: 0.5019608
      objectReference: {fileID: 0}
    - target: {fileID: 8730623482536856631, guid: 4d8827d7661e148098ee540be8a8b8cb,
        type: 3}
      propertyPath: m_Name
      value: MenuOption3
      objectReference: {fileID: 0}
    m_RemovedComponents: []
  m_SourcePrefab: {fileID: 100100000, guid: 4d8827d7661e148098ee540be8a8b8cb, type: 3}
--- !u!224 &1541658724 stripped
RectTransform:
  m_CorrespondingSourceObject: {fileID: 8730623482536856628, guid: 4d8827d7661e148098ee540be8a8b8cb,
    type: 3}
  m_PrefabInstance: {fileID: 1541658723}
  m_PrefabAsset: {fileID: 0}
--- !u!1 &1750723813
GameObject:
  m_ObjectHideFlags: 0
  m_CorrespondingSourceObject: {fileID: 0}
  m_PrefabInstance: {fileID: 0}
  m_PrefabAsset: {fileID: 0}
  serializedVersion: 6
  m_Component:
  - component: {fileID: 1750723816}
  - component: {fileID: 1750723815}
  - component: {fileID: 1750723814}
  m_Layer: 0
  m_Name: Main Camera
  m_TagString: MainCamera
  m_Icon: {fileID: 0}
  m_NavMeshLayer: 0
  m_StaticEditorFlags: 0
  m_IsActive: 1
--- !u!81 &1750723814
AudioListener:
  m_ObjectHideFlags: 0
  m_CorrespondingSourceObject: {fileID: 0}
  m_PrefabInstance: {fileID: 0}
  m_PrefabAsset: {fileID: 0}
  m_GameObject: {fileID: 1750723813}
  m_Enabled: 1
--- !u!20 &1750723815
Camera:
  m_ObjectHideFlags: 0
  m_CorrespondingSourceObject: {fileID: 0}
  m_PrefabInstance: {fileID: 0}
  m_PrefabAsset: {fileID: 0}
  m_GameObject: {fileID: 1750723813}
  m_Enabled: 1
  serializedVersion: 2
  m_ClearFlags: 1
  m_BackGroundColor: {r: 0.19215687, g: 0.3019608, b: 0.4745098, a: 0}
  m_projectionMatrixMode: 1
  m_SensorSize: {x: 36, y: 24}
  m_LensShift: {x: 0, y: 0}
  m_GateFitMode: 2
  m_FocalLength: 50
  m_NormalizedViewPortRect:
    serializedVersion: 2
    x: 0
    y: 0
    width: 1
    height: 1
  near clip plane: 0.3
  far clip plane: 1000
  field of view: 60
  orthographic: 0
  orthographic size: 5
  m_Depth: -1
  m_CullingMask:
    serializedVersion: 2
    m_Bits: 4294967295
  m_RenderingPath: -1
  m_TargetTexture: {fileID: 0}
  m_TargetDisplay: 0
  m_TargetEye: 3
  m_HDR: 1
  m_AllowMSAA: 1
  m_AllowDynamicResolution: 0
  m_ForceIntoRT: 0
  m_OcclusionCulling: 1
  m_StereoConvergence: 10
  m_StereoSeparation: 0.022
--- !u!4 &1750723816
Transform:
  m_ObjectHideFlags: 0
  m_CorrespondingSourceObject: {fileID: 0}
  m_PrefabInstance: {fileID: 0}
  m_PrefabAsset: {fileID: 0}
  m_GameObject: {fileID: 1750723813}
  m_LocalRotation: {x: 0, y: 0, z: 0, w: 1}
  m_LocalPosition: {x: 0, y: 1, z: -10}
  m_LocalScale: {x: 1, y: 1, z: 1}
  m_Children: []
  m_Father: {fileID: 0}
  m_RootOrder: 0
  m_LocalEulerAnglesHint: {x: 0, y: 0, z: 0}
--- !u!1 &1823260256
GameObject:
  m_ObjectHideFlags: 0
  m_CorrespondingSourceObject: {fileID: 0}
  m_PrefabInstance: {fileID: 0}
  m_PrefabAsset: {fileID: 0}
  serializedVersion: 6
  m_Component:
  - component: {fileID: 1823260258}
  - component: {fileID: 1823260257}
  m_Layer: 0
  m_Name: Directional Light
  m_TagString: Untagged
  m_Icon: {fileID: 0}
  m_NavMeshLayer: 0
  m_StaticEditorFlags: 0
  m_IsActive: 1
--- !u!108 &1823260257
Light:
  m_ObjectHideFlags: 0
  m_CorrespondingSourceObject: {fileID: 0}
  m_PrefabInstance: {fileID: 0}
  m_PrefabAsset: {fileID: 0}
  m_GameObject: {fileID: 1823260256}
  m_Enabled: 1
  serializedVersion: 8
  m_Type: 1
  m_Color: {r: 1, g: 0.95686275, b: 0.8392157, a: 1}
  m_Intensity: 1
  m_Range: 10
  m_SpotAngle: 30
  m_CookieSize: 10
  m_Shadows:
    m_Type: 2
    m_Resolution: -1
    m_CustomResolution: -1
    m_Strength: 1
    m_Bias: 0.05
    m_NormalBias: 0.4
    m_NearPlane: 0.2
  m_Cookie: {fileID: 0}
  m_DrawHalo: 0
  m_Flare: {fileID: 0}
  m_RenderMode: 0
  m_CullingMask:
    serializedVersion: 2
    m_Bits: 4294967295
  m_Lightmapping: 4
  m_LightShadowCasterMode: 0
  m_AreaSize: {x: 1, y: 1}
  m_BounceIntensity: 1
  m_ColorTemperature: 6570
  m_UseColorTemperature: 0
  m_ShadowRadius: 0
  m_ShadowAngle: 0
--- !u!4 &1823260258
Transform:
  m_ObjectHideFlags: 0
  m_CorrespondingSourceObject: {fileID: 0}
  m_PrefabInstance: {fileID: 0}
  m_PrefabAsset: {fileID: 0}
  m_GameObject: {fileID: 1823260256}
  m_LocalRotation: {x: 0.40821788, y: -0.23456968, z: 0.10938163, w: 0.8754261}
  m_LocalPosition: {x: 0, y: 3, z: 0}
  m_LocalScale: {x: 1, y: 1, z: 1}
  m_Children: []
  m_Father: {fileID: 0}
  m_RootOrder: 1
  m_LocalEulerAnglesHint: {x: 50, y: -30, z: 0}
--- !u!1001 &1916916056
PrefabInstance:
  m_ObjectHideFlags: 0
  serializedVersion: 2
  m_Modification:
    m_TransformParent: {fileID: 344882004}
    m_Modifications:
    - target: {fileID: 8730623481054853322, guid: 4d8827d7661e148098ee540be8a8b8cb,
        type: 3}
      propertyPath: m_textInfo.characterCount
      value: 13
      objectReference: {fileID: 0}
    - target: {fileID: 8730623481054853322, guid: 4d8827d7661e148098ee540be8a8b8cb,
        type: 3}
      propertyPath: m_textInfo.spaceCount
      value: 0
      objectReference: {fileID: 0}
    - target: {fileID: 8730623481054853322, guid: 4d8827d7661e148098ee540be8a8b8cb,
        type: 3}
      propertyPath: m_textInfo.wordCount
      value: 1
      objectReference: {fileID: 0}
    - target: {fileID: 8730623481054853322, guid: 4d8827d7661e148098ee540be8a8b8cb,
        type: 3}
      propertyPath: m_textInfo.lineCount
      value: 1
      objectReference: {fileID: 0}
    - target: {fileID: 8730623481054853322, guid: 4d8827d7661e148098ee540be8a8b8cb,
        type: 3}
      propertyPath: m_textInfo.pageCount
      value: 1
      objectReference: {fileID: 0}
    - target: {fileID: 8730623481054853322, guid: 4d8827d7661e148098ee540be8a8b8cb,
        type: 3}
      propertyPath: m_text
      value: Beginner Mode
      objectReference: {fileID: 0}
    - target: {fileID: 8730623481054853322, guid: 4d8827d7661e148098ee540be8a8b8cb,
        type: 3}
      propertyPath: m_firstOverflowCharacterIndex
      value: 0
      objectReference: {fileID: 0}
    - target: {fileID: 8730623481054853322, guid: 4d8827d7661e148098ee540be8a8b8cb,
        type: 3}
      propertyPath: m_enableAutoSizing
      value: 1
      objectReference: {fileID: 0}
    - target: {fileID: 8730623481054853322, guid: 4d8827d7661e148098ee540be8a8b8cb,
        type: 3}
      propertyPath: m_fontSize
      value: 18
      objectReference: {fileID: 0}
    - target: {fileID: 8730623481054853322, guid: 4d8827d7661e148098ee540be8a8b8cb,
        type: 3}
      propertyPath: m_fontColor.r
      value: 0.83971167
      objectReference: {fileID: 0}
    - target: {fileID: 8730623481054853322, guid: 4d8827d7661e148098ee540be8a8b8cb,
        type: 3}
      propertyPath: m_fontColor.g
      value: 0.86116415
      objectReference: {fileID: 0}
    - target: {fileID: 8730623481054853322, guid: 4d8827d7661e148098ee540be8a8b8cb,
        type: 3}
      propertyPath: m_fontColor32.rgba
      value: 4294302678
      objectReference: {fileID: 0}
    - target: {fileID: 8730623481054853322, guid: 4d8827d7661e148098ee540be8a8b8cb,
        type: 3}
      propertyPath: m_fontColor.b
      value: 0.9622642
      objectReference: {fileID: 0}
    - target: {fileID: 8730623481054853333, guid: 4d8827d7661e148098ee540be8a8b8cb,
        type: 3}
      propertyPath: m_AnchorMin.y
      value: 0.1
      objectReference: {fileID: 0}
    - target: {fileID: 8730623481054853333, guid: 4d8827d7661e148098ee540be8a8b8cb,
        type: 3}
      propertyPath: m_AnchoredPosition.y
      value: 0
      objectReference: {fileID: 0}
    - target: {fileID: 8730623481054853333, guid: 4d8827d7661e148098ee540be8a8b8cb,
        type: 3}
      propertyPath: m_SizeDelta.y
      value: 0
      objectReference: {fileID: 0}
    - target: {fileID: 8730623481054853333, guid: 4d8827d7661e148098ee540be8a8b8cb,
        type: 3}
      propertyPath: m_AnchorMax.y
      value: 0.9
      objectReference: {fileID: 0}
    - target: {fileID: 8730623482536856628, guid: 4d8827d7661e148098ee540be8a8b8cb,
        type: 3}
      propertyPath: m_LocalPosition.x
      value: 0
      objectReference: {fileID: 0}
    - target: {fileID: 8730623482536856628, guid: 4d8827d7661e148098ee540be8a8b8cb,
        type: 3}
      propertyPath: m_LocalPosition.y
      value: 0
      objectReference: {fileID: 0}
    - target: {fileID: 8730623482536856628, guid: 4d8827d7661e148098ee540be8a8b8cb,
        type: 3}
      propertyPath: m_LocalPosition.z
      value: 0
      objectReference: {fileID: 0}
    - target: {fileID: 8730623482536856628, guid: 4d8827d7661e148098ee540be8a8b8cb,
        type: 3}
      propertyPath: m_LocalRotation.x
      value: -0
      objectReference: {fileID: 0}
    - target: {fileID: 8730623482536856628, guid: 4d8827d7661e148098ee540be8a8b8cb,
        type: 3}
      propertyPath: m_LocalRotation.y
      value: -0
      objectReference: {fileID: 0}
    - target: {fileID: 8730623482536856628, guid: 4d8827d7661e148098ee540be8a8b8cb,
        type: 3}
      propertyPath: m_LocalRotation.z
      value: -0
      objectReference: {fileID: 0}
    - target: {fileID: 8730623482536856628, guid: 4d8827d7661e148098ee540be8a8b8cb,
        type: 3}
      propertyPath: m_LocalRotation.w
      value: 1
      objectReference: {fileID: 0}
    - target: {fileID: 8730623482536856628, guid: 4d8827d7661e148098ee540be8a8b8cb,
        type: 3}
      propertyPath: m_RootOrder
      value: 4
      objectReference: {fileID: 0}
    - target: {fileID: 8730623482536856628, guid: 4d8827d7661e148098ee540be8a8b8cb,
        type: 3}
      propertyPath: m_LocalEulerAnglesHint.x
      value: 0
      objectReference: {fileID: 0}
    - target: {fileID: 8730623482536856628, guid: 4d8827d7661e148098ee540be8a8b8cb,
        type: 3}
      propertyPath: m_LocalEulerAnglesHint.y
      value: 0
      objectReference: {fileID: 0}
    - target: {fileID: 8730623482536856628, guid: 4d8827d7661e148098ee540be8a8b8cb,
        type: 3}
      propertyPath: m_LocalEulerAnglesHint.z
      value: 0
      objectReference: {fileID: 0}
    - target: {fileID: 8730623482536856628, guid: 4d8827d7661e148098ee540be8a8b8cb,
        type: 3}
      propertyPath: m_AnchoredPosition.x
      value: 0
      objectReference: {fileID: 0}
    - target: {fileID: 8730623482536856628, guid: 4d8827d7661e148098ee540be8a8b8cb,
        type: 3}
      propertyPath: m_AnchoredPosition.y
      value: 0
      objectReference: {fileID: 0}
    - target: {fileID: 8730623482536856628, guid: 4d8827d7661e148098ee540be8a8b8cb,
        type: 3}
      propertyPath: m_SizeDelta.x
      value: 0
      objectReference: {fileID: 0}
    - target: {fileID: 8730623482536856628, guid: 4d8827d7661e148098ee540be8a8b8cb,
        type: 3}
      propertyPath: m_SizeDelta.y
      value: 0
      objectReference: {fileID: 0}
    - target: {fileID: 8730623482536856628, guid: 4d8827d7661e148098ee540be8a8b8cb,
        type: 3}
      propertyPath: m_AnchorMin.x
      value: 0
      objectReference: {fileID: 0}
    - target: {fileID: 8730623482536856628, guid: 4d8827d7661e148098ee540be8a8b8cb,
        type: 3}
      propertyPath: m_AnchorMin.y
      value: 0.31
      objectReference: {fileID: 0}
    - target: {fileID: 8730623482536856628, guid: 4d8827d7661e148098ee540be8a8b8cb,
        type: 3}
      propertyPath: m_AnchorMax.x
      value: 1
      objectReference: {fileID: 0}
    - target: {fileID: 8730623482536856628, guid: 4d8827d7661e148098ee540be8a8b8cb,
        type: 3}
      propertyPath: m_AnchorMax.y
      value: 0.44
      objectReference: {fileID: 0}
    - target: {fileID: 8730623482536856628, guid: 4d8827d7661e148098ee540be8a8b8cb,
        type: 3}
      propertyPath: m_Pivot.x
      value: 0.5
      objectReference: {fileID: 0}
    - target: {fileID: 8730623482536856628, guid: 4d8827d7661e148098ee540be8a8b8cb,
        type: 3}
      propertyPath: m_Pivot.y
      value: 0.5
      objectReference: {fileID: 0}
    - target: {fileID: 8730623482536856629, guid: 4d8827d7661e148098ee540be8a8b8cb,
        type: 3}
      propertyPath: m_OnClick.m_PersistentCalls.m_Calls.Array.size
      value: 1
      objectReference: {fileID: 0}
    - target: {fileID: 8730623482536856629, guid: 4d8827d7661e148098ee540be8a8b8cb,
        type: 3}
      propertyPath: m_OnClick.m_PersistentCalls.m_Calls.Array.data[0].m_Mode
      value: 1
      objectReference: {fileID: 0}
    - target: {fileID: 8730623482536856629, guid: 4d8827d7661e148098ee540be8a8b8cb,
        type: 3}
      propertyPath: m_OnClick.m_PersistentCalls.m_Calls.Array.data[0].m_CallState
      value: 2
      objectReference: {fileID: 0}
    - target: {fileID: 8730623482536856629, guid: 4d8827d7661e148098ee540be8a8b8cb,
        type: 3}
      propertyPath: m_OnClick.m_PersistentCalls.m_Calls.Array.data[0].m_Target
      value: 
      objectReference: {fileID: 1274182308}
    - target: {fileID: 8730623482536856629, guid: 4d8827d7661e148098ee540be8a8b8cb,
        type: 3}
      propertyPath: m_OnClick.m_PersistentCalls.m_Calls.Array.data[0].m_MethodName
      value: ToggleDifficulty
      objectReference: {fileID: 0}
    - target: {fileID: 8730623482536856629, guid: 4d8827d7661e148098ee540be8a8b8cb,
        type: 3}
      propertyPath: m_OnClick.m_PersistentCalls.m_Calls.Array.data[0].m_Arguments.m_ObjectArgumentAssemblyTypeName
      value: UnityEngine.Object, UnityEngine
      objectReference: {fileID: 0}
    - target: {fileID: 8730623482536856629, guid: 4d8827d7661e148098ee540be8a8b8cb,
        type: 3}
      propertyPath: m_Navigation.m_Mode
      value: 2
      objectReference: {fileID: 0}
    - target: {fileID: 8730623482536856629, guid: 4d8827d7661e148098ee540be8a8b8cb,
        type: 3}
      propertyPath: m_Colors.m_NormalColor.r
      value: 0.23767357
      objectReference: {fileID: 0}
    - target: {fileID: 8730623482536856629, guid: 4d8827d7661e148098ee540be8a8b8cb,
        type: 3}
      propertyPath: m_Colors.m_NormalColor.g
      value: 0.46226418
      objectReference: {fileID: 0}
    - target: {fileID: 8730623482536856629, guid: 4d8827d7661e148098ee540be8a8b8cb,
        type: 3}
      propertyPath: m_Colors.m_NormalColor.b
      value: 0.44453812
      objectReference: {fileID: 0}
    - target: {fileID: 8730623482536856629, guid: 4d8827d7661e148098ee540be8a8b8cb,
        type: 3}
      propertyPath: m_Colors.m_NormalColor.a
      value: 0.5019608
      objectReference: {fileID: 0}
    - target: {fileID: 8730623482536856631, guid: 4d8827d7661e148098ee540be8a8b8cb,
        type: 3}
      propertyPath: m_Name
      value: MenuOption5
      objectReference: {fileID: 0}
    m_RemovedComponents: []
  m_SourcePrefab: {fileID: 100100000, guid: 4d8827d7661e148098ee540be8a8b8cb, type: 3}
--- !u!224 &1916916057 stripped
RectTransform:
  m_CorrespondingSourceObject: {fileID: 8730623482536856628, guid: 4d8827d7661e148098ee540be8a8b8cb,
    type: 3}
  m_PrefabInstance: {fileID: 1916916056}
  m_PrefabAsset: {fileID: 0}
--- !u!224 &1981077582 stripped
RectTransform:
  m_CorrespondingSourceObject: {fileID: 8730623482536856628, guid: 4d8827d7661e148098ee540be8a8b8cb,
    type: 3}
  m_PrefabInstance: {fileID: 8730623480759833722}
  m_PrefabAsset: {fileID: 0}
--- !u!1001 &2088579489
PrefabInstance:
  m_ObjectHideFlags: 0
  serializedVersion: 2
  m_Modification:
    m_TransformParent: {fileID: 344882004}
    m_Modifications:
    - target: {fileID: 8730623481054853322, guid: 4d8827d7661e148098ee540be8a8b8cb,
        type: 3}
      propertyPath: m_textInfo.characterCount
      value: 10
      objectReference: {fileID: 0}
    - target: {fileID: 8730623481054853322, guid: 4d8827d7661e148098ee540be8a8b8cb,
        type: 3}
      propertyPath: m_textInfo.spaceCount
      value: 1
      objectReference: {fileID: 0}
    - target: {fileID: 8730623481054853322, guid: 4d8827d7661e148098ee540be8a8b8cb,
        type: 3}
      propertyPath: m_textInfo.wordCount
      value: 2
      objectReference: {fileID: 0}
    - target: {fileID: 8730623481054853322, guid: 4d8827d7661e148098ee540be8a8b8cb,
        type: 3}
      propertyPath: m_textInfo.lineCount
      value: 1
      objectReference: {fileID: 0}
    - target: {fileID: 8730623481054853322, guid: 4d8827d7661e148098ee540be8a8b8cb,
        type: 3}
      propertyPath: m_textInfo.pageCount
      value: 1
      objectReference: {fileID: 0}
    - target: {fileID: 8730623481054853322, guid: 4d8827d7661e148098ee540be8a8b8cb,
        type: 3}
      propertyPath: m_text
      value: Versus (2P)
      objectReference: {fileID: 0}
    - target: {fileID: 8730623481054853322, guid: 4d8827d7661e148098ee540be8a8b8cb,
        type: 3}
      propertyPath: m_enableAutoSizing
      value: 1
      objectReference: {fileID: 0}
    - target: {fileID: 8730623481054853322, guid: 4d8827d7661e148098ee540be8a8b8cb,
        type: 3}
      propertyPath: m_fontSize
      value: 18
      objectReference: {fileID: 0}
    - target: {fileID: 8730623481054853322, guid: 4d8827d7661e148098ee540be8a8b8cb,
        type: 3}
      propertyPath: m_fontColor.r
      value: 0.83971167
      objectReference: {fileID: 0}
    - target: {fileID: 8730623481054853322, guid: 4d8827d7661e148098ee540be8a8b8cb,
        type: 3}
      propertyPath: m_fontColor.g
      value: 0.86116415
      objectReference: {fileID: 0}
    - target: {fileID: 8730623481054853322, guid: 4d8827d7661e148098ee540be8a8b8cb,
        type: 3}
      propertyPath: m_fontColor32.rgba
      value: 4294302678
      objectReference: {fileID: 0}
    - target: {fileID: 8730623481054853322, guid: 4d8827d7661e148098ee540be8a8b8cb,
        type: 3}
      propertyPath: m_fontColor.b
      value: 0.9622642
      objectReference: {fileID: 0}
    - target: {fileID: 8730623481054853322, guid: 4d8827d7661e148098ee540be8a8b8cb,
        type: 3}
      propertyPath: m_firstOverflowCharacterIndex
      value: 0
      objectReference: {fileID: 0}
    - target: {fileID: 8730623481054853333, guid: 4d8827d7661e148098ee540be8a8b8cb,
        type: 3}
      propertyPath: m_AnchorMin.y
      value: 0.1
      objectReference: {fileID: 0}
    - target: {fileID: 8730623481054853333, guid: 4d8827d7661e148098ee540be8a8b8cb,
        type: 3}
      propertyPath: m_AnchoredPosition.y
      value: 0
      objectReference: {fileID: 0}
    - target: {fileID: 8730623481054853333, guid: 4d8827d7661e148098ee540be8a8b8cb,
        type: 3}
      propertyPath: m_SizeDelta.y
      value: 0
      objectReference: {fileID: 0}
    - target: {fileID: 8730623481054853333, guid: 4d8827d7661e148098ee540be8a8b8cb,
        type: 3}
      propertyPath: m_AnchorMax.y
      value: 0.9
      objectReference: {fileID: 0}
    - target: {fileID: 8730623482536856628, guid: 4d8827d7661e148098ee540be8a8b8cb,
        type: 3}
      propertyPath: m_LocalPosition.x
      value: 0
      objectReference: {fileID: 0}
    - target: {fileID: 8730623482536856628, guid: 4d8827d7661e148098ee540be8a8b8cb,
        type: 3}
      propertyPath: m_LocalPosition.y
      value: 0
      objectReference: {fileID: 0}
    - target: {fileID: 8730623482536856628, guid: 4d8827d7661e148098ee540be8a8b8cb,
        type: 3}
      propertyPath: m_LocalPosition.z
      value: 0
      objectReference: {fileID: 0}
    - target: {fileID: 8730623482536856628, guid: 4d8827d7661e148098ee540be8a8b8cb,
        type: 3}
      propertyPath: m_LocalRotation.x
      value: -0
      objectReference: {fileID: 0}
    - target: {fileID: 8730623482536856628, guid: 4d8827d7661e148098ee540be8a8b8cb,
        type: 3}
      propertyPath: m_LocalRotation.y
      value: -0
      objectReference: {fileID: 0}
    - target: {fileID: 8730623482536856628, guid: 4d8827d7661e148098ee540be8a8b8cb,
        type: 3}
      propertyPath: m_LocalRotation.z
      value: -0
      objectReference: {fileID: 0}
    - target: {fileID: 8730623482536856628, guid: 4d8827d7661e148098ee540be8a8b8cb,
        type: 3}
      propertyPath: m_LocalRotation.w
      value: 1
      objectReference: {fileID: 0}
    - target: {fileID: 8730623482536856628, guid: 4d8827d7661e148098ee540be8a8b8cb,
        type: 3}
      propertyPath: m_RootOrder
      value: 3
      objectReference: {fileID: 0}
    - target: {fileID: 8730623482536856628, guid: 4d8827d7661e148098ee540be8a8b8cb,
        type: 3}
      propertyPath: m_LocalEulerAnglesHint.x
      value: 0
      objectReference: {fileID: 0}
    - target: {fileID: 8730623482536856628, guid: 4d8827d7661e148098ee540be8a8b8cb,
        type: 3}
      propertyPath: m_LocalEulerAnglesHint.y
      value: 0
      objectReference: {fileID: 0}
    - target: {fileID: 8730623482536856628, guid: 4d8827d7661e148098ee540be8a8b8cb,
        type: 3}
      propertyPath: m_LocalEulerAnglesHint.z
      value: 0
      objectReference: {fileID: 0}
    - target: {fileID: 8730623482536856628, guid: 4d8827d7661e148098ee540be8a8b8cb,
        type: 3}
      propertyPath: m_AnchoredPosition.x
      value: 0
      objectReference: {fileID: 0}
    - target: {fileID: 8730623482536856628, guid: 4d8827d7661e148098ee540be8a8b8cb,
        type: 3}
      propertyPath: m_AnchoredPosition.y
      value: 0
      objectReference: {fileID: 0}
    - target: {fileID: 8730623482536856628, guid: 4d8827d7661e148098ee540be8a8b8cb,
        type: 3}
      propertyPath: m_SizeDelta.x
      value: 0
      objectReference: {fileID: 0}
    - target: {fileID: 8730623482536856628, guid: 4d8827d7661e148098ee540be8a8b8cb,
        type: 3}
      propertyPath: m_SizeDelta.y
      value: 0
      objectReference: {fileID: 0}
    - target: {fileID: 8730623482536856628, guid: 4d8827d7661e148098ee540be8a8b8cb,
        type: 3}
      propertyPath: m_AnchorMin.x
      value: 0
      objectReference: {fileID: 0}
    - target: {fileID: 8730623482536856628, guid: 4d8827d7661e148098ee540be8a8b8cb,
        type: 3}
      propertyPath: m_AnchorMin.y
      value: 0.45
      objectReference: {fileID: 0}
    - target: {fileID: 8730623482536856628, guid: 4d8827d7661e148098ee540be8a8b8cb,
        type: 3}
      propertyPath: m_AnchorMax.x
      value: 1
      objectReference: {fileID: 0}
    - target: {fileID: 8730623482536856628, guid: 4d8827d7661e148098ee540be8a8b8cb,
        type: 3}
      propertyPath: m_AnchorMax.y
      value: 0.58
      objectReference: {fileID: 0}
    - target: {fileID: 8730623482536856628, guid: 4d8827d7661e148098ee540be8a8b8cb,
        type: 3}
      propertyPath: m_Pivot.x
      value: 0.5
      objectReference: {fileID: 0}
    - target: {fileID: 8730623482536856628, guid: 4d8827d7661e148098ee540be8a8b8cb,
        type: 3}
      propertyPath: m_Pivot.y
      value: 0.5
      objectReference: {fileID: 0}
    - target: {fileID: 8730623482536856629, guid: 4d8827d7661e148098ee540be8a8b8cb,
        type: 3}
      propertyPath: m_OnClick.m_PersistentCalls.m_Calls.Array.size
      value: 1
      objectReference: {fileID: 0}
    - target: {fileID: 8730623482536856629, guid: 4d8827d7661e148098ee540be8a8b8cb,
        type: 3}
      propertyPath: m_OnClick.m_PersistentCalls.m_Calls.Array.data[0].m_Mode
      value: 1
      objectReference: {fileID: 0}
    - target: {fileID: 8730623482536856629, guid: 4d8827d7661e148098ee540be8a8b8cb,
        type: 3}
      propertyPath: m_OnClick.m_PersistentCalls.m_Calls.Array.data[0].m_CallState
      value: 2
      objectReference: {fileID: 0}
    - target: {fileID: 8730623482536856629, guid: 4d8827d7661e148098ee540be8a8b8cb,
        type: 3}
      propertyPath: m_OnClick.m_PersistentCalls.m_Calls.Array.data[0].m_Target
      value: 
      objectReference: {fileID: 1274182308}
    - target: {fileID: 8730623482536856629, guid: 4d8827d7661e148098ee540be8a8b8cb,
        type: 3}
      propertyPath: m_OnClick.m_PersistentCalls.m_Calls.Array.data[0].m_MethodName
      value: StartMultiplayer
      objectReference: {fileID: 0}
    - target: {fileID: 8730623482536856629, guid: 4d8827d7661e148098ee540be8a8b8cb,
        type: 3}
      propertyPath: m_OnClick.m_PersistentCalls.m_Calls.Array.data[0].m_Arguments.m_ObjectArgumentAssemblyTypeName
      value: UnityEngine.Object, UnityEngine
      objectReference: {fileID: 0}
    - target: {fileID: 8730623482536856629, guid: 4d8827d7661e148098ee540be8a8b8cb,
        type: 3}
      propertyPath: m_Navigation.m_Mode
      value: 2
      objectReference: {fileID: 0}
    - target: {fileID: 8730623482536856629, guid: 4d8827d7661e148098ee540be8a8b8cb,
        type: 3}
      propertyPath: m_Colors.m_NormalColor.r
      value: 0.23767357
      objectReference: {fileID: 0}
    - target: {fileID: 8730623482536856629, guid: 4d8827d7661e148098ee540be8a8b8cb,
        type: 3}
      propertyPath: m_Colors.m_NormalColor.g
      value: 0.46226418
      objectReference: {fileID: 0}
    - target: {fileID: 8730623482536856629, guid: 4d8827d7661e148098ee540be8a8b8cb,
        type: 3}
      propertyPath: m_Colors.m_NormalColor.b
      value: 0.44453812
      objectReference: {fileID: 0}
    - target: {fileID: 8730623482536856629, guid: 4d8827d7661e148098ee540be8a8b8cb,
        type: 3}
      propertyPath: m_Colors.m_NormalColor.a
      value: 0.5019608
      objectReference: {fileID: 0}
    - target: {fileID: 8730623482536856631, guid: 4d8827d7661e148098ee540be8a8b8cb,
        type: 3}
      propertyPath: m_Name
      value: MenuOption4
      objectReference: {fileID: 0}
    m_RemovedComponents: []
  m_SourcePrefab: {fileID: 100100000, guid: 4d8827d7661e148098ee540be8a8b8cb, type: 3}
--- !u!224 &2088579490 stripped
RectTransform:
  m_CorrespondingSourceObject: {fileID: 8730623482536856628, guid: 4d8827d7661e148098ee540be8a8b8cb,
    type: 3}
  m_PrefabInstance: {fileID: 2088579489}
  m_PrefabAsset: {fileID: 0}
--- !u!1 &2112719436
GameObject:
  m_ObjectHideFlags: 0
  m_CorrespondingSourceObject: {fileID: 0}
  m_PrefabInstance: {fileID: 0}
  m_PrefabAsset: {fileID: 0}
  serializedVersion: 6
  m_Component:
  - component: {fileID: 2112719437}
  - component: {fileID: 2112719439}
  - component: {fileID: 2112719438}
  m_Layer: 5
  m_Name: Background
  m_TagString: Untagged
  m_Icon: {fileID: 0}
  m_NavMeshLayer: 0
  m_StaticEditorFlags: 0
  m_IsActive: 1
--- !u!224 &2112719437
RectTransform:
  m_ObjectHideFlags: 0
  m_CorrespondingSourceObject: {fileID: 0}
  m_PrefabInstance: {fileID: 0}
  m_PrefabAsset: {fileID: 0}
  m_GameObject: {fileID: 2112719436}
  m_LocalRotation: {x: 0, y: 0, z: 0, w: 1}
  m_LocalPosition: {x: 0, y: 0, z: 0}
  m_LocalScale: {x: 1, y: 1, z: 1}
  m_Children: []
  m_Father: {fileID: 460099060}
  m_RootOrder: 0
  m_LocalEulerAnglesHint: {x: 0, y: 0, z: 0}
  m_AnchorMin: {x: 0, y: 0}
  m_AnchorMax: {x: 1, y: 1}
  m_AnchoredPosition: {x: 0, y: 0}
  m_SizeDelta: {x: 0, y: 0}
  m_Pivot: {x: 0.5, y: 0.5}
--- !u!114 &2112719438
MonoBehaviour:
  m_ObjectHideFlags: 0
  m_CorrespondingSourceObject: {fileID: 0}
  m_PrefabInstance: {fileID: 0}
  m_PrefabAsset: {fileID: 0}
  m_GameObject: {fileID: 2112719436}
  m_Enabled: 1
  m_EditorHideFlags: 0
  m_Script: {fileID: -765806418, guid: f70555f144d8491a825f0804e09c671c, type: 3}
  m_Name: 
  m_EditorClassIdentifier: 
  m_Material: {fileID: 0}
  m_Color: {r: 1, g: 1, b: 1, a: 1}
  m_RaycastTarget: 1
  m_OnCullStateChanged:
    m_PersistentCalls:
      m_Calls: []
  m_Sprite: {fileID: 21300000, guid: 3cd8e59a902184ff58a46fd8e76d778e, type: 3}
  m_Type: 0
  m_PreserveAspect: 0
  m_FillCenter: 1
  m_FillMethod: 4
  m_FillAmount: 1
  m_FillClockwise: 1
  m_FillOrigin: 0
  m_UseSpriteMesh: 0
--- !u!222 &2112719439
CanvasRenderer:
  m_ObjectHideFlags: 0
  m_CorrespondingSourceObject: {fileID: 0}
  m_PrefabInstance: {fileID: 0}
  m_PrefabAsset: {fileID: 0}
  m_GameObject: {fileID: 2112719436}
  m_CullTransparentMesh: 0
--- !u!1001 &8730623480759833722
PrefabInstance:
  m_ObjectHideFlags: 0
  serializedVersion: 2
  m_Modification:
    m_TransformParent: {fileID: 344882004}
    m_Modifications:
    - target: {fileID: 8730623481054853322, guid: 4d8827d7661e148098ee540be8a8b8cb,
        type: 3}
      propertyPath: m_text
      value: Puzzle (1P)
      objectReference: {fileID: 0}
    - target: {fileID: 8730623481054853322, guid: 4d8827d7661e148098ee540be8a8b8cb,
        type: 3}
      propertyPath: m_textInfo.characterCount
      value: 11
      objectReference: {fileID: 0}
    - target: {fileID: 8730623481054853322, guid: 4d8827d7661e148098ee540be8a8b8cb,
        type: 3}
      propertyPath: m_textInfo.spaceCount
      value: 1
      objectReference: {fileID: 0}
    - target: {fileID: 8730623481054853322, guid: 4d8827d7661e148098ee540be8a8b8cb,
        type: 3}
      propertyPath: m_textInfo.wordCount
      value: 2
      objectReference: {fileID: 0}
    - target: {fileID: 8730623481054853322, guid: 4d8827d7661e148098ee540be8a8b8cb,
        type: 3}
      propertyPath: m_enableAutoSizing
      value: 1
      objectReference: {fileID: 0}
    - target: {fileID: 8730623481054853322, guid: 4d8827d7661e148098ee540be8a8b8cb,
        type: 3}
      propertyPath: m_fontSize
      value: 30.85
      objectReference: {fileID: 0}
    - target: {fileID: 8730623481054853322, guid: 4d8827d7661e148098ee540be8a8b8cb,
        type: 3}
      propertyPath: m_fontColor.r
      value: 0.83971167
      objectReference: {fileID: 0}
    - target: {fileID: 8730623481054853322, guid: 4d8827d7661e148098ee540be8a8b8cb,
        type: 3}
      propertyPath: m_fontColor.g
      value: 0.86116415
      objectReference: {fileID: 0}
    - target: {fileID: 8730623481054853322, guid: 4d8827d7661e148098ee540be8a8b8cb,
        type: 3}
      propertyPath: m_fontColor32.rgba
      value: 4294302678
      objectReference: {fileID: 0}
    - target: {fileID: 8730623481054853322, guid: 4d8827d7661e148098ee540be8a8b8cb,
        type: 3}
      propertyPath: m_fontColor.b
      value: 0.9622642
      objectReference: {fileID: 0}
    - target: {fileID: 8730623481054853333, guid: 4d8827d7661e148098ee540be8a8b8cb,
        type: 3}
      propertyPath: m_AnchorMin.y
      value: 0.1
      objectReference: {fileID: 0}
    - target: {fileID: 8730623481054853333, guid: 4d8827d7661e148098ee540be8a8b8cb,
        type: 3}
      propertyPath: m_AnchoredPosition.y
      value: 0
      objectReference: {fileID: 0}
    - target: {fileID: 8730623481054853333, guid: 4d8827d7661e148098ee540be8a8b8cb,
        type: 3}
      propertyPath: m_SizeDelta.y
      value: 0
      objectReference: {fileID: 0}
    - target: {fileID: 8730623481054853333, guid: 4d8827d7661e148098ee540be8a8b8cb,
        type: 3}
      propertyPath: m_AnchorMax.y
      value: 0.9
      objectReference: {fileID: 0}
    - target: {fileID: 8730623482536856628, guid: 4d8827d7661e148098ee540be8a8b8cb,
        type: 3}
      propertyPath: m_LocalPosition.x
      value: 0
      objectReference: {fileID: 0}
    - target: {fileID: 8730623482536856628, guid: 4d8827d7661e148098ee540be8a8b8cb,
        type: 3}
      propertyPath: m_LocalPosition.y
      value: 0
      objectReference: {fileID: 0}
    - target: {fileID: 8730623482536856628, guid: 4d8827d7661e148098ee540be8a8b8cb,
        type: 3}
      propertyPath: m_LocalPosition.z
      value: 0
      objectReference: {fileID: 0}
    - target: {fileID: 8730623482536856628, guid: 4d8827d7661e148098ee540be8a8b8cb,
        type: 3}
      propertyPath: m_LocalRotation.x
      value: -0
      objectReference: {fileID: 0}
    - target: {fileID: 8730623482536856628, guid: 4d8827d7661e148098ee540be8a8b8cb,
        type: 3}
      propertyPath: m_LocalRotation.y
      value: -0
      objectReference: {fileID: 0}
    - target: {fileID: 8730623482536856628, guid: 4d8827d7661e148098ee540be8a8b8cb,
        type: 3}
      propertyPath: m_LocalRotation.z
      value: -0
      objectReference: {fileID: 0}
    - target: {fileID: 8730623482536856628, guid: 4d8827d7661e148098ee540be8a8b8cb,
        type: 3}
      propertyPath: m_LocalRotation.w
      value: 1
      objectReference: {fileID: 0}
    - target: {fileID: 8730623482536856628, guid: 4d8827d7661e148098ee540be8a8b8cb,
        type: 3}
      propertyPath: m_RootOrder
      value: 0
      objectReference: {fileID: 0}
    - target: {fileID: 8730623482536856628, guid: 4d8827d7661e148098ee540be8a8b8cb,
        type: 3}
      propertyPath: m_LocalEulerAnglesHint.x
      value: 0
      objectReference: {fileID: 0}
    - target: {fileID: 8730623482536856628, guid: 4d8827d7661e148098ee540be8a8b8cb,
        type: 3}
      propertyPath: m_LocalEulerAnglesHint.y
      value: 0
      objectReference: {fileID: 0}
    - target: {fileID: 8730623482536856628, guid: 4d8827d7661e148098ee540be8a8b8cb,
        type: 3}
      propertyPath: m_LocalEulerAnglesHint.z
      value: 0
      objectReference: {fileID: 0}
    - target: {fileID: 8730623482536856628, guid: 4d8827d7661e148098ee540be8a8b8cb,
        type: 3}
      propertyPath: m_AnchoredPosition.x
      value: 0
      objectReference: {fileID: 0}
    - target: {fileID: 8730623482536856628, guid: 4d8827d7661e148098ee540be8a8b8cb,
        type: 3}
      propertyPath: m_AnchoredPosition.y
      value: 0
      objectReference: {fileID: 0}
    - target: {fileID: 8730623482536856628, guid: 4d8827d7661e148098ee540be8a8b8cb,
        type: 3}
      propertyPath: m_SizeDelta.x
      value: 0
      objectReference: {fileID: 0}
    - target: {fileID: 8730623482536856628, guid: 4d8827d7661e148098ee540be8a8b8cb,
        type: 3}
      propertyPath: m_SizeDelta.y
      value: 0
      objectReference: {fileID: 0}
    - target: {fileID: 8730623482536856628, guid: 4d8827d7661e148098ee540be8a8b8cb,
        type: 3}
      propertyPath: m_AnchorMin.x
      value: 0
      objectReference: {fileID: 0}
    - target: {fileID: 8730623482536856628, guid: 4d8827d7661e148098ee540be8a8b8cb,
        type: 3}
      propertyPath: m_AnchorMin.y
      value: 0.87
      objectReference: {fileID: 0}
    - target: {fileID: 8730623482536856628, guid: 4d8827d7661e148098ee540be8a8b8cb,
        type: 3}
      propertyPath: m_AnchorMax.x
      value: 1
      objectReference: {fileID: 0}
    - target: {fileID: 8730623482536856628, guid: 4d8827d7661e148098ee540be8a8b8cb,
        type: 3}
      propertyPath: m_AnchorMax.y
      value: 1
      objectReference: {fileID: 0}
    - target: {fileID: 8730623482536856628, guid: 4d8827d7661e148098ee540be8a8b8cb,
        type: 3}
      propertyPath: m_Pivot.x
      value: 0.5
      objectReference: {fileID: 0}
    - target: {fileID: 8730623482536856628, guid: 4d8827d7661e148098ee540be8a8b8cb,
        type: 3}
      propertyPath: m_Pivot.y
      value: 0.5
      objectReference: {fileID: 0}
    - target: {fileID: 8730623482536856629, guid: 4d8827d7661e148098ee540be8a8b8cb,
        type: 3}
      propertyPath: m_OnClick.m_PersistentCalls.m_Calls.Array.size
      value: 1
      objectReference: {fileID: 0}
    - target: {fileID: 8730623482536856629, guid: 4d8827d7661e148098ee540be8a8b8cb,
        type: 3}
      propertyPath: m_OnClick.m_PersistentCalls.m_Calls.Array.data[0].m_Mode
      value: 1
      objectReference: {fileID: 0}
    - target: {fileID: 8730623482536856629, guid: 4d8827d7661e148098ee540be8a8b8cb,
        type: 3}
      propertyPath: m_OnClick.m_PersistentCalls.m_Calls.Array.data[0].m_CallState
      value: 2
      objectReference: {fileID: 0}
    - target: {fileID: 8730623482536856629, guid: 4d8827d7661e148098ee540be8a8b8cb,
        type: 3}
      propertyPath: m_OnClick.m_PersistentCalls.m_Calls.Array.data[0].m_Target
      value: 
      objectReference: {fileID: 1274182308}
    - target: {fileID: 8730623482536856629, guid: 4d8827d7661e148098ee540be8a8b8cb,
        type: 3}
      propertyPath: m_OnClick.m_PersistentCalls.m_Calls.Array.data[0].m_MethodName
      value: StartCarcassoneLevel
      objectReference: {fileID: 0}
    - target: {fileID: 8730623482536856629, guid: 4d8827d7661e148098ee540be8a8b8cb,
        type: 3}
      propertyPath: m_OnClick.m_PersistentCalls.m_Calls.Array.data[0].m_Arguments.m_ObjectArgumentAssemblyTypeName
      value: UnityEngine.Object, UnityEngine
      objectReference: {fileID: 0}
    - target: {fileID: 8730623482536856629, guid: 4d8827d7661e148098ee540be8a8b8cb,
        type: 3}
      propertyPath: m_Navigation.m_Mode
      value: 2
      objectReference: {fileID: 0}
    - target: {fileID: 8730623482536856629, guid: 4d8827d7661e148098ee540be8a8b8cb,
        type: 3}
      propertyPath: m_Colors.m_NormalColor.r
      value: 0.23767357
      objectReference: {fileID: 0}
    - target: {fileID: 8730623482536856629, guid: 4d8827d7661e148098ee540be8a8b8cb,
        type: 3}
      propertyPath: m_Colors.m_NormalColor.g
      value: 0.46226418
      objectReference: {fileID: 0}
    - target: {fileID: 8730623482536856629, guid: 4d8827d7661e148098ee540be8a8b8cb,
        type: 3}
      propertyPath: m_Colors.m_NormalColor.b
      value: 0.44453812
      objectReference: {fileID: 0}
    - target: {fileID: 8730623482536856629, guid: 4d8827d7661e148098ee540be8a8b8cb,
        type: 3}
      propertyPath: m_Colors.m_NormalColor.a
      value: 0.5019608
      objectReference: {fileID: 0}
    - target: {fileID: 8730623482536856631, guid: 4d8827d7661e148098ee540be8a8b8cb,
        type: 3}
      propertyPath: m_Name
      value: MenuOption1
      objectReference: {fileID: 0}
    m_RemovedComponents: []
  m_SourcePrefab: {fileID: 100100000, guid: 4d8827d7661e148098ee540be8a8b8cb, type: 3}
